AREA, Total BRA, Total SOX2

dE 0-3N (1)
829, 1818, 22108
1225, 2085, 49926
1169, 2153, 53374
756, 1658, 34860
279, 443, 14906
558, 1040, 29348
1054, 1757, 51412
525, 825, 32969
683, 1167, 29680
489, 896, 22374
377, 544, 20094
725, 1224, 39270
1564, 2722, 72421
402, 717, 16725
400, 770, 11449
1175, 1812, 62993
443, 757, 13445
400, 614, 11476
599, 1170, 14593
310, 373, 5698
430, 632, 15643
432, 667, 30416
398, 705, 22865
546, 925, 25402
329, 584, 9627
716, 1008, 52319
769, 1335, 29289
389, 601, 19371
414, 576, 15028
581, 1089, 9218
729, 1378, 41347
276, 756, 5086
643, 956, 15763
525, 1022, 36354
193, 448, 9074
805, 1295, 38354
506, 909, 21739
461, 543, 9870
469, 565, 10441
935, 1208, 26775
481, 674, 20914
401, 481, 11454
218, 423, 4177
744, 1617, 42678
147, 355, 1045
618, 1145, 44208
407, 529, 10324
449, 685, 17904
399, 581, 25092
278, 473, 9105
599, 1439, 14672
573, 931, 30050
866, 1362, 20233
502, 956, 10884
698, 1182, 38035
213, 369, 4378
521, 974, 24524
659, 995, 9702
480, 886, 26454
542, 793, 16070
433, 641, 20653
312, 471, 2376
691, 1158, 39229
243, 377, 8017
831, 1259, 24241
538, 793, 27001
775, 1228, 36576
534, 861, 18362
562, 939, 19587
132, 210, 1305
1003, 1578, 36220
310, 527, 8202
659, 918, 23269
492, 1190, 26190
385, 812, 15704
380, 644, 9299
468, 946, 38895
685, 1126, 29102
387, 613, 13806
428, 521, 15239
223, 428, 5726
1394, 2844, 59201
385, 667, 11981
590, 1156, 45324
655, 1069, 33109
786, 1352, 18774
568, 986, 23280
717, 1320, 24018
1123, 1788, 28055
358, 498, 9580
780, 1495, 47174
621, 942, 22473
640, 1006, 19363
300, 420, 13170
437, 684, 18469
533, 782, 14113
512, 927, 37099
417, 718, 23927
587, 920, 9966
408, 535, 14928
456, 953, 32391
699, 1124, 19891
372, 490, 13512
404, 586, 16403
524, 945, 25534
372, 638, 25999
330, 506, 8171
223, 479, 3677
347, 507, 16724
473, 877, 27218
1052, 1797, 31785
145, 134, 2486
1029, 1280, 26437
436, 707, 12065
573, 844, 23166
374, 734, 18786
558, 940, 24286
432, 667, 15961
192, 279, 5591
832, 1219, 28371
581, 1074, 34942
788, 1121, 28732
274, 565, 9810
381, 550, 10056
638, 1205, 36511
493, 853, 18786
376, 606, 16273
483, 658, 28553
140, 212, 2527
427, 747, 18647
1010, 1578, 40614
393, 426, 13289
282, 366, 9236
416, 592, 11769
783, 1507, 11055
477, 774, 31570
698, 1096, 34930
297, 382, 11671
514, 987, 35339
434, 645, 19372
367, 851, 10364
825, 2063, 50344
592, 1004, 14605
384, 542, 16518
211, 263, 8180
135, 293, 4994
453, 913, 25802
531, 1010, 19918
218, 364, 4322
491, 748, 20220
182, 230, 5257
808, 1242, 29554
664, 1048, 23702
334, 448, 20769
613, 1251, 31389
545, 1042, 34848
425, 664, 16925
448, 740, 19715
354, 569, 13005
305, 456, 9953
268, 492, 7434
148, 245, 4748
717, 1371, 40299
441, 812, 30596
353, 461, 13158
444, 854, 22575
235, 279, 4522
590, 1091, 25829
548, 814, 19565
371, 557, 9163
889, 1488, 56943
580, 1376, 13455
385, 802, 20708
224, 409, 11234
286, 531, 14085
397, 759, 22543
419, 623, 21599
484, 747, 27013
561, 981, 34164
679, 1323, 30290
521, 804, 21066
379, 618, 15011
338, 477, 12177
325, 576, 15386
243, 432, 10463
511, 816, 29544
445, 777, 18953
317, 443, 10205
702, 1049, 20265
787, 1761, 41683
120, 137, 5651
744, 1244, 45783
361, 541, 14913
722, 1467, 36416
205, 342, 10132
354, 534, 18834
188, 406, 4506
654, 1368, 37463
383, 610, 15784
240, 413, 14863
217, 336, 12265
397, 656, 20269
467, 734, 19302
302, 493, 19250
485, 1075, 15048
213, 400, 13215
306, 431, 16808
377, 663, 19727
269, 474, 16081
306, 525, 19987
516, 1051, 34031
622, 1319, 37442
527, 995, 35599
346, 774, 23165
423, 778, 22491
532, 791, 26627
152, 264, 5116
404, 782, 33234
548, 989, 28736
405, 820, 31696
506, 855, 31355
635, 1109, 37873
641, 1177, 33765
221, 386, 17523
579, 1110, 35027

dE 0-3N (2)
808, 1444, 42693
1487, 2523, 64008
219, 444, 11251
673, 1205, 30422
461, 877, 17859
589, 1181, 32427
1004, 1619, 36794
946, 1595, 44961
701, 1290, 33583
621, 1102, 22985
563, 957, 28487
502, 848, 21844
340, 467, 16126
754, 1348, 30096
589, 866, 23132
844, 1307, 39756
450, 707, 25612
557, 1106, 31886
468, 746, 21264
409, 569, 12057
528, 1033, 31663
691, 1102, 31222
595, 960, 23930
453, 722, 21977
346, 579, 11703
510, 794, 24068
520, 795, 23859
873, 1642, 45990
408, 570, 20822
438, 553, 12682
331, 584, 14007
245, 542, 3803
853, 1358, 46352
467, 940, 21035
501, 1031, 22774
655, 1180, 23080
304, 569, 14454
1094, 2074, 41220
554, 825, 20293
413, 683, 20044
1301, 2349, 74401
336, 667, 17007
1074, 2112, 54447
392, 833, 14301
686, 1235, 32031
161, 308, 6643
437, 740, 23319
416, 812, 27684
651, 1206, 28342
697, 1114, 30224
258, 346, 12619
540, 1321, 25541
406, 766, 17435
529, 1010, 32235
353, 609, 19865
758, 1746, 62098
210, 334, 6371
445, 818, 25487
249, 443, 16288
498, 794, 16431
453, 776, 24866
705, 1188, 29077
352, 671, 19715
521, 787, 30210
679, 1430, 36078
225, 253, 3696
459, 923, 22250
589, 1501, 19999
562, 916, 22733
452, 820, 27497
313, 541, 12420
575, 922, 32701
307, 627, 14679
739, 1499, 31277
983, 1966, 49581
897, 1433, 39371
382, 804, 26475
448, 747, 25184
568, 1118, 26283
459, 714, 26211
1447, 2798, 67508
963, 1643, 49062
398, 736, 19129
457, 839, 23433
627, 1148, 35169
580, 1121, 34376
341, 925, 12002
520, 1209, 29326
518, 915, 25129
220, 360, 4771
440, 853, 20533
856, 1604, 31227
617, 1099, 31172
282, 492, 7121
288, 428, 11361
372, 876, 19442
304, 448, 13402
476, 873, 20291
481, 799, 10756
378, 650, 13840
587, 1102, 23616
1662, 3463, 81028
723, 1481, 46754
621, 1358, 31963
870, 1669, 32641
663, 1206, 33129

dE 0-3N (3)
670, 1107, 50332
654, 1125, 52918
732, 1372, 32927
863, 1404, 43757
1281, 2121, 88349
1278, 2000, 98171
353, 528, 22037
737, 1005, 40124
207, 325, 12816
473, 567, 22143
298, 465, 16790
376, 900, 15758
279, 386, 12619
743, 1440, 60644
392, 563, 22685
538, 753, 36843
919, 1349, 40934
889, 1180, 29259
314, 322, 9388
345, 481, 23988
608, 1003, 40591
231, 339, 12404
355, 635, 23520
334, 586, 21614
608, 1063, 30477
287, 275, 6574
451, 677, 18847
535, 690, 25967
485, 797, 27618
346, 452, 19645
446, 704, 34115
373, 641, 27084
538, 961, 40292
282, 398, 13461
266, 525, 4244
264, 391, 8826
312, 493, 10621
299, 452, 13873
572, 786, 17249
500, 664, 28045
646, 1135, 51077
553, 952, 40778
791, 1189, 47420
710, 1028, 34168
232, 316, 9189
401, 657, 22906
574, 874, 40289
518, 909, 5229
512, 944, 35704
609, 814, 19372
511, 724, 31926
395, 546, 23282
1311, 1904, 26475
824, 1220, 34443
328, 545, 23033
382, 525, 23860
521, 806, 33573
879, 1565, 54936
1127, 1661, 42374
735, 1244, 33418
278, 509, 17238
386, 684, 23097
347, 553, 9054
333, 475, 23268
368, 549, 28814
908, 1404, 28214
584, 735, 25777
364, 528, 29389
449, 643, 29787
217, 413, 10440
593, 953, 45969
894, 1574, 76235
299, 464, 8860
505, 621, 19310
270, 511, 25149
554, 908, 30634
889, 1489, 48630
1231, 2010, 60326
474, 610, 28512
389, 512, 16852
215, 335, 6966
642, 890, 18364
403, 577, 11400
584, 828, 20660
678, 1046, 42528
1360, 2501, 99229
1237, 1538, 73291
341, 520, 11833
331, 726, 8482
290, 418, 18493
436, 668, 15804
305, 371, 20977
1311, 1870, 61999
276, 434, 12828
282, 295, 7408
559, 782, 26679
477, 624, 22298
567, 687, 26955
765, 1032, 42168
986, 2059, 63433
727, 1399, 62783
539, 808, 22749
717, 1031, 36120
318, 479, 21330
313, 403, 22071
432, 654, 11354
550, 783, 29736
260, 342, 15091
637, 813, 24970
462, 683, 22958
688, 917, 32825
324, 644, 7679
910, 1550, 38784
382, 549, 33630
321, 553, 25073
455, 621, 37427
439, 684, 23449
464, 799, 38951
503, 781, 29721
396, 492, 17110
535, 829, 30133
806, 1416, 46508
630, 1177, 23072
409, 653, 27350
273, 427, 22102
758, 1022, 33382
653, 1226, 54990
225, 323, 14557
429, 608, 14640
504, 993, 32860
1197, 2275, 78091
425, 601, 21128
357, 677, 28114
681, 941, 25879
686, 1064, 55852
585, 916, 27822
715, 985, 30827
592, 1217, 50628
236, 306, 11307
811, 1402, 56630
514, 655, 13283
1477, 2420, 54252
418, 754, 33167
1278, 2616, 116676
235, 384, 12211
554, 915, 37077
369, 594, 23714
536, 786, 39900
389, 458, 21035
349, 557, 30210
1393, 2326, 98360
392, 514, 18827
287, 341, 13352
756, 1051, 49298
409, 571, 20965
493, 938, 43526
638, 1357, 46787
587, 968, 32092
685, 1659, 34331
826, 1356, 45879
370, 536, 22895
336, 511, 9218
343, 569, 24528
264, 588, 13307
347, 536, 24862
441, 684, 17866
256, 418, 16445
399, 585, 22172
427, 1009, 41099
306, 485, 19836
252, 512, 17136
704, 966, 44226
614, 1091, 35715
841, 1475, 44439
1479, 2392, 113015
632, 1092, 37428
500, 813, 39479
422, 838, 23333
542, 939, 24532
361, 689, 27043
870, 2013, 49702
297, 309, 12064
409, 1201, 9560
689, 1105, 53642
533, 785, 29670
376, 608, 23459
580, 1017, 42807
901, 1875, 88654
787, 1329, 44901
521, 922, 25664
677, 1126, 41377
429, 813, 26320
607, 973, 38684
1146, 2186, 93334
536, 762, 18226
535, 985, 38749
429, 641, 23414
776, 1578, 54201
333, 619, 22116
610, 1253, 17851
288, 568, 18050
494, 925, 13132

