Time,Cell 1,Cell 2,Cell 3,Cell 4,Cell 5,Cell 6,Cell 7,Cell 8,Cell 9,Cell 10,Cell 11,Cell 12,Cell 13,Cell 14,Cell 15,Cell 16,Cell 17,Cell 18,Cell 19,Cell 20,Cell 21,Cell 22,Cell 23,Cell 24,Cell 25,Cell 26,Cell 27,Cell 28,Cell 29,Cell 30,Cell 31,Cell 32,Cell 33,Cell 34,Cell 35,Cell 36,Cell 37,Cell 38,Cell 39,Cell 40,Cell 41,Cell 42,Cell 43,Cell 44,Cell 45,Cell 46,Cell 47,Cell 48,Cell 49,Cell 50,Cell 51,Cell 52,Cell 53,Cell 54,Cell 55,Cell 56,Cell 57,Cell 58,Cell 59,Cell 60,Cell 61,Cell 62,Cell 63,Cell 64,Cell 65,Cell 66,Cell 67,Cell 68,Cell 69,Cell 70,Cell 71,Cell 72,Cell 73,Cell 74,Cell 75,
645,,,,,,,,,,,,,,,,,,,,,,,,,,,,,,,,,,,,,0.0020270394394,,,0.000716666666667,,,,,,,,,,,,,,,,,,,,,,,,,,,,,,,,,,,,
660,0.00516049766119,,,,,,,,,,,,,,,,,,,,,,,,,,,,,,,,,,,,0.00222513170646,,,0.000660734019439,,,,,,,,,,,,,,,,,,,,,,,,,,,,,,,,,,,,
675,0.00335917193831,,,,,,,,,,,,,,,,,,,,,,,,,,,,,,,,,,,,0.000676101981131,,,0.00225037898043,,,,,,,,,,,,,,,,,,,,,,,,,,,,,,,,,,,,
690,0.00441899246938,,,,,,,,,,,,,,,,,,,,,,,,,,,,,,,,,,,,0.00105814565265,,,0.00550668684419,,,,,,,,,,,,,,,,,,,,,,,,,,,,,,,,,,,,
705,0.00120135224735,,,,,,,,,,,,,,,,,,,,,,,,,,,,,,,,,,,,0.000648969268233,,,0.00378207210989,,,,,,,,,,,,,,,,,,,,,,,,,,,,,,,,,,,,
720,0.00196789933121,,,,,,,,,,,,,,,,,,,,,,,,,,,,,,,,,,,,0.00239521107861,,,0.00222628552127,,,,,,,,,,,,,,,,,,,,,,,,,,,,,,,,,,,,
735,0.00319620478067,,,,,,,,,,,,,,,,,,,,,,,,,,,,,,,,,,,,0.00232115931283,,,0.00233329761877,,,,,,,,,,,,,,,,,,,,,,,,,,,,,,,,,,,,
750,0.00339566921894,,,,,,,,,,,,,,,,,,,,,,,,,,,,,,,,,,,,0.00102611050953,,,0.00338050990565,,,,,,,,,,,,,,,,,,,,,,,,,,,,,,,,,,,,
765,0.00725215676732,,,,,,,,,,,,,,,,,,,,,,,,,,,,,,,,,,,,0.00272333333333,,,0.00150670538298,,,,,,,,,,,,,,,,,,,,,,,,,,,,,,,,,,,,
780,0.00283513913043,,,,,,,,,,,,,,,,,,,,,,,,,,,,,,,,,,,,0.00206345247367,,,0.000573333333333,,,,,,,,,,,,,,,,,,,,,,,,,,,,,,,,,,,,
795,0.00226629898979,,,,,,,,,,,,,,,,,,,,,,,,,,,,,,,,,,,,0.0020497167826,,,0.00133884382128,,,,,,,,,,,,,,,,,,,,,,,,,,,,,,,,,,,,
810,0.000516795682816,,,,,,,,,,,,,,,,,,,,,,,,,,,,,,,,,,,,0.00279591865245,,,0.000874803152461,,,,,,,,,,,,,,,,,,,,,,,,,,,,,,,,,,,,
825,0.000897980759507,,,,,,,,,,,,,,,,,,,,,,,,,,,,,,,,,,,,0.00205222101907,,,0.00192301846065,,,,,,,,,,,,,,,,,,,,,,,,,,,,,,,,,,,,
840,0.0020497167826,,,,,,,,,,,,,,,,,,,,,,,,,,,,,,,,,,,,0.000573333333333,,,0.00147744618251,,,,,,,,,,,,,,,,,,,,,,,,,,,,,,,,,,,,
855,0.00203714942451,,,,,,,,,,,,,,,,,,,,,,,,,,,,,,,,,,,,0.00252466114338,,,0.00249601738331,,,,,,,,,,,,,,,,,,,,,,,,,,,,,,,,,,,,
870,0.000838836826935,,,,,,,,,,,,,,,,,,,,,,,,,,,,,,,,,,,,0.00136166666667,,,0.00347638741288,,,,,,,,,,,,,,,,,,,,,,,,,,,,,,,,,,,,
885,0.00445603024626,,,,,,,,,,,,,,,,,,,,,,,,,,,,,,,,,,,,0.00193632670568,,,0.00573915329605,,,,,,,,,,,,,,,,,,,,,,,,,,,,,,,,,,,,
900,0.00310160218453,,,,,,,,,,,,,,,,,,,,,,,,,,,,,,,,,,,,0.00134649441968,,,0.00485009163716,,,,,,,,,,,,,,,,,,,,,,,,,,,,,,,,,,,,
915,0.00248364036133,,,,,,,,,,,,,,,,,,,,,,,,,,,,,,,,,,,,0.00360690579922,,,0.00520805172572,,,,,,,,,,,,,,,,,,,,,,,,,,,,,,,,,,,,
930,0.00020270394394,,,,,,,,,,,,,,,,,,,,,,,,,,,,,,,,,,,,0.0015912582373,,,0.000817125721321,,,,,,,,,,,,,,,,,,,,,,,,,,,,,,,,,,,,
945,0.00102611050953,,,,,,,,,,,,,,,,,,,,,,,,,,,,,,,,,,,,0.00465833333333,,,0.000320503076775,,,,,,,,,,,,,,,,,,,,,,,,,,,,,,,,,,,,
960,0.0024534714635,,,,,,,,,,,,,,,,,,,,,,,,,,,,,,,,,,,,0.00399409077402,,,0.00314191113107,,,,,,,,,,,,,,,,,,,,,,,,,,,,,,,,,,,,
975,0.00184254428561,,,,,,,,,,,,,,,,,,,,,,,,,,,,,,,,,,,,0.00235084145692,,,0.00357041002936,,,,,,,,,,,,,,,,,,,,,,,,,,,,,,,,,,,,
990,0.00115781043353,,,,,,,,,,,,,,,,,,,,,,,,,,,,,,,,,,,,0.00112176076871,,,0.00278302992358,,,,,,,,,,,,,,,,,,,,,,,,,,,,,,,,,,,,
1005,0.00416962061957,,,,,,,,,,,,,,,,,,,,,,,,,,,,,,,,,,,,0.00104348241746,,,0.00170349721977,,,,,,,,,,,,,,,,,,,,,,,,,,,,,,,,,,,,
1020,0.00140802659381,,,,,,,,,,,,,,,,,,,,,,,,,,,,,,,,,,,,0.000516795682816,,,0.00278763988189,,,,,,,,,,,,,,,,,,,,,,,,,,,,,,,,,,,,
1035,0.003443730616,,,,,,,,,,,,,,,,,,,,,,,,,,,,,,,,,,,,0.00266711714945,,,0.00224923752513,,,,,,,,,,,,,,,,,,,,,,,,,,,,,,,,,,,,
1050,0.00575211506994,,,,,,,,,,,,,,,,,,,,,,,,,,,,,,,,,,,,0.00109394418911,,,,,,,,,,,,,,,,,,,,,,,,,,,,,,,,,,,,,,,
1065,0.00782086614271,0.00359906546512,,,,,,,,,,,,,,,,,,,,,,,,,,,,,,,,,,,,,,,,,,,,,,,,,,,,,,,,,,,,,,,,,,,,,,,,,,
1080,0.00390237997182,0.00301341076597,,,,,,,,,,,,,,,,,,,,,,,,,,,,,,,,,,,,,,,,,,,0.000385936811178,,,,,,,,,,,,,,,,,,,,,,,,,,,,,,,
1095,,0.000862980944813,,,,,,,,,,,,,,,,,,,,,,,,,,,,,,,,,,,,,,,,,,,0.00323850874461,,,,,,,,,,,,,,,,,,,,,,,,,,,,,,,
1110,,0.00164989056876,,,,,,,,,,,,,,,,,,,,,,,,,,,,,0.00361827959426,,,,,,,,,,,,,,0.000737853493437,,,,,,,,,,,,,,,,,,,,,,,,,,,,,,,
1125,,0.00344149273168,,,,,,,,,,,,,,,,,,,,,,,,,,,,,0.00338278813341,,,,,,,,,,,,,,0.00322818361381,,,,,,,,,,,,,,,,,,,,,,,,,,,,,,,
1140,,0.00439100912218,,,,,,,,,,,,,,,,,,,,,,,,,,,,,0.00395272690683,,,,,,,,,,,,,,0.00147744618251,,,,,,,,,,,,,,,,,,,,,,,,,,,,,,,
1155,,0.00370246952122,,,,,,,,,,,,,,,,,,,,,,,,,,,,,0.00572661064195,,,,,,,,,,,,,,0.00150670538298,,,,,,,,,,,,,,,,,,,,,,,,,,,,,,,
1170,,0.00239521107861,,,,,,,,,,,,,,,,,,,,,,,,,,,,,0.0031484431779,,,,,,,,,,,,,,0.00407429884902,,,,,,,,,,,,,,,,,,,,,,,,,,,,,,,
1185,,0.00244087871245,,,,,,,,,,,,,,,,,,,,,,,,,,,,,0.00064100615355,,,,,,,,,,,,,,0.0058407234141,,,,,,,,,,,,,,,,,,,,,,,,,,,,,,,
1200,,0.00161050802889,,,,,,,,,,,,,,,,,,,,,,,,,,,,,0.00237258883454,,,,,,,,,,,,,,0.00425979818249,,,,,,,,,,,,,,,,,,,,,,,,,,,,,,,
1215,,0.000258397841408,,,,,,,,,,,,,,,,,,,,,,,,,,,,,0.00182714865904,,,,,,,,,,,,,,0.00254189452531,,,,,,,,,,,,,,,,,,,,,,,,,,,,,,,
1230,,0.00142794821724,,,,,,,,,,,,,,,,,,,,,,,,,,,,,0.00243455791104,,,,,,,,,,,,,,0.0038091355829,,,,,,,,,,,,,,,,,,,,,,,,,,,,,,,
1245,,0.00323850874461,,,,,,,,,,,,,,,,,,,,,,,,,,,,,0.00426702635203,,,,,,,,,,,,,,0.00379495132453,,,,,,,,,,,,,,,,,,,,,,,,,,,,,,,
1260,,0.00371631575324,,,,,,,,,,,,,,,,,,,,,,,,,,,,,0.00481501874924,,,,,,,,,,,,,,0.00163739121776,,,,,,,,,,,,,,,,,,,,,,,,,,,,,,,
1275,,0.00308749448942,,,,,,,,,,,,,,,,,,,,,,,,,,,,,0.00331995398228,,,,,,,,,,,,,,0.00259686616692,,,,,,,,,,,,,,,,,,,,,,,,,,,,,,,
1290,,0.00117542072846,,,,,,,,,,,,,,,,,,,,,,,,,,,,,0.000709463803791,,,,,,,,,,,,,,0.00476515972683,,,,,,,,,,,,,,,,,,,,,,,,,,,,,,,
1305,,0.000775193524225,,,,,,,,,,,,,,,,,,,,,,,,,,,,,0.000862980944813,,,,,,,,,,,,,,0.00198220205832,,,,,,,,,,,,,,,,,,,,,,,,,,,,,,,
1320,,0.00270155767825,,,,,,,,,,,,,,,,,,,,,,,,,,,,,0.0030210709102,,,,,,,,,,,,,,0.00163425144264,,,,,,,,,,,,,,,,,,,,,,,,,,,,,,,
1335,,0.00167920368032,,,,,,,,,,,,,,,,,,,,,,,,,,,,,0.0039004052496,,,,,,,,,,,,,,0.00134649441968,,,,,,,,,,,,,,,,,,,,,,,,,,,,,,,
1350,,0.00163425144264,,,,,,,,,,,,,,,,,,,,,,,,,,,,,0.0023475619741,,,,,,,,,,,,,,0.00177438330445,,,,,,,,,,,,,,,,,,,,,,,,,,,,,,,
1365,,0.00336909565842,,,,,,,,,,,,,,,,,,,,,,,,,,,,,0.0017451973782,,,,,,,,,,,,,,0.000817125721321,,,,,,,,,,,,,,,,,,,,,,,,,,,,,,,
1380,,0.00332459187136,,,,,,,,,,,,,,,,,,,,,,,,,,,,,0.00200794602074,,,,,,,,,,,,,,0.00244613357044,,,,,,,,,,,,,,,,,,,,,,,,,,,,,,,
1395,,0.00320503076775,,,,,,,,,,,,,,,,,,,,,,,,,,,,,,,,,,,,,,,,,,,0.00231118055451,,,,,,,,,,,,,,,,,,,,,,,,,,,,,,,
1410,,0.00221240002913,,,,,,,,,,,,,,,,,,,,,,,,,,,,,0.00205347199207,,,,,,,,,,,,,,0.00286845777379,,,,,,,,,,,,,,,,,,,,,,,,,,,,,,,
1425,,0.00208942442899,,,,,,,,,,,,,,,,,,,,,,,,,,,,,0.000748221966472,,,,,,,,,,,,,,0.00256902759381,,,,,,,,,,,,,,,,,,,,,,,,,,,,,,,
1440,,0.000286666666667,,,,,,,,,,,,,,,,,,,,,,,,,,,,,0.00358977753876,,,,,,,,,,,,,,0.00216665769229,,,,,,,,,,,,,,,,,,,,,,,,,,,,,,,
1455,,0.00136918974418,,,,,,,,,,,,,,,,,,,,,,,,,,,,,0.0057494357211,,,,,,,,,,,,,,0.00296010228802,,,,,,,,,,,,,,,,,,,,,,,,,,,,,,,
1470,,0.00121833333333,,,,,,,,,,,,,,,,,,,,,,,,,,,,,0.0062776891095,,,,,,,,,,,,,,0.00260476539784,,,,,,,,,,,,,,,,,,,,,,,,,,,,,,,
1485,,0.000295489236503,,,,,,,,,,,,,,,,,,,,,,,,,,,,,0.00501922553787,,,,,,,,,,,,,,0.000771873622356,,,,,,,,,,,,,,,,,,,,,,,,,,,,,,,
1500,,0.00150670538298,,,,,,,,,,,,,,,,,,,,,,,,,,,,,0.0038044133728,,,,,,,,,,,,,,0.00386335849862,,,,,,,,,,,,,,,,,,,,,,,,,,,,,,,
1515,,0.000577795138628,,,,,,,,,,,,,,,,,,,,,,,,,,,,,0.00298085092251,,,,,,,,,,,,,,0.00432916498235,,,,,,,,,,,,,,,,,,,,,,,,,,,,,,,
1530,,0.00120135224735,,,,,,,,,,,,,,,,,,,,,,,,,,,,,0.00667116202605,,,,,,,,,,,,,,0.00469567087859,,,,,,,,,,,,,,,,,,,,,,,,,,,,,,,
1545,,0.00301,,,,,,,,,,,,,,,,,,,,,,,,,,,,,0.00451272429421,,,,,,,,,,,,,,0.003443730616,,,,,,,,,,,,,,,,,,,,,,,,,,,,,,,
1560,,0.00139151496179,,,,,,,,,,,,,,,,,,,,,,,,,,,,,0.00395792103116,,,,,,,,,,,,,,0.00497038172019,,,,,,,,,,,,,,,,,,,,,,,,,,,,,,,
1575,,0.00522429846433,,,,,,,,,,,,,,,,,,,,,,,,,,,,,0.00638195590012,,,,,,,,,,,,,,0.00442305858227,,,,,,,,,,,,,,,,,,,,,,,,,,,,,,,
1590,,0.00776682850332,,,,,,,,,,,,,,,,,,,,,,,,,,,,,0.00545797072587,,,,,,,,,,,,,,,,,,,,,,,,,,,,,,,,,,,,,,,,,,,,,
1605,,0.00372666666667,,,,,,,,,,,,,,,,,,,,,,,,,,,,,0.0033036700972,0.00392076275176,,,,,,,,,,,,,,,,,,0.00272710265463,,,,,,,,,,,,,,,,,,,,,,,,,,
1620,,0.000862980944813,,,,,,,,,,,,,,,,,,,,,,,,,,,,,0.00192301846065,0.00545844122031,,,,,,,,,,,,,,,,,,0.00461401999948,,,,,,,,,,,,,,,,,,,,,,,,,,
1635,,,,,,,,,,,,,,,,,,,,,,,,,,,,,,,,0.00250012944109,,,,,,,,,,,,,,,,,,0.0118966666667,,,,,,,,,,,,,,,,,,,,,,,,,,
1650,,,,,,,,,,,,,,,,,,,,,,,,,,,,,,,,,,,,,,,,,,,,,,,,,,0.00734504670585,,,,,,,,,,,,,,,,,,,,,,,,,,
1665,,,,,,,,,,,,,,,,,,,,,,,,,,,,,,,,,,,,,,,,,,,,,,,,,,0.0015337336434,,,,,,,,,,,,,,,,,,,,,,,,,,
1680,,,,,,,,,,,,,,,,,,,,,,,,,,,,,,,,,,,,,,,,,,,,,,,,,,0.00182714865904,,,,,,,,,,,,,,,,,,,,,,,,,,
1695,,,,,,,,,,,,,,,,,,,,,,,,,,,,,,,,,,,,,,,,,,,,,,,,,,0.00195743170734,,,,,,,,,,,,,,,,,,,,,,,,,,
1710,,,,,,,,,,,,,,,,,,,,,,,,,,,,,,,,,,,,,,,,,,,,,,,,,,0.00485749878481,,,,,,,,,,,,,,,,,,,,,,,,,,
1725,,,,,,,,,,,,,,,,,,,,,,,,,,,,,,,,,,,,,,,,,,,,,,,,,,0.0056901708625,,,,,,,,,,,,,,,,,,,,,,,,,,
1740,,,,,,,,,,,,,,,,,,,,,,,,,,,,,,,,,,,,,,,,,,,,,,,,,,0.00821388796829,,,,,,,,,,,,,,,,,,,,,,,,,,
1755,,,,,,,,,,,,,,,,,,,,,,,,,,,,,,,,,,,,,,,,,,,,,,,,,,0.0111480258591,,,,,,,,,,,,,,,,,,,,,,,,,,
1770,,,,,,,,,,,,,,,,,,,,,,,,,,,,,,,,,,,,,,,,,,,,,,,,,,0.00851416890966,,,,,,,,,,,,,,,,,,,,,,,,,,
1785,,,,,,,,,,,,,,,,,,,,,,,,,,,,,,,,,,,,,,,,,,,,,,,,,,0.00259785488432,,,,,,,,,,,,,,,,,,,,,,,,,,
1800,,,,,,,,,,,,,,,,,,,,,,,,,,,,,,,,,,,,,,,,,,,,,,,,,,0.00411756029437,,,,,,,,,,,,,,,,,,,,,,,,,,
1815,,,,,,,,,,,,,,,,,,,,,,,,,,,,,,,,,,,,,,,,,,,,,,,,,,0.00391486341467,,,,,,,,,,,,,,,,,,,,,,,,,,
1830,,,,,,,,,,,,,,,,,,,,,,,,,,,,,,,,,,,,,,,,,,,,,,,,,,0.00363315366528,,,,,,,,,,,,,,,,,,,,,,,,,,
1845,,,,0.00161050802889,,,,,,0.00203714942451,,,,,,,,,,,,,,,,,,,,,,,,,,,,0.000435931314671,,,,,,,,,0.00238661836543,,,0.00288897569314,,,,,,,,0.00335917193831,0.0023475619741,,,,,,,,,,,,,,,,,
1860,,,,0.00316390274117,,,,,,0.00157177270763,,,,,,,,,,,,,,,,,,,,,,,,,,,,0.000577795138628,,,,,,,,,0.00228548134974,,,0.00267768764256,,,,,,,,0.000435931314671,0.00362891015167,,,,,,,,,,,,,,,,,
1875,,,,0.0040597759243,,,,,,0.00238231038653,,,,,,,,,,,,,,,,,,,,,,,,,,,,0.000648969268233,,,,,,,,,0.00209310840087,,,0.000705834809129,,,,,,,,0.00127598872339,0.00256902759381,,,,,,,,,,,,,,,,,
1890,,,,0.00343177836956,,,,,,0.00258497206088,,,,,,,,,,,,,,,,,,,,,,,,,,,,0.00144226384549,,,,,,,,,0.00280966239569,,,0.00304224788967,,,,,,,,0.00191230518252,0.00375002296289,,,,,,,,,,,,,,,,,
1905,,,,0.00346158160704,,,,,,0.00105814565265,,,,,,,,,,,,,,,,,,,,,,,,,,,,0.00166229593568,,,,,,,,,0.000862980944813,,,0.00464121212616,,,,,,,,0.00100333333333,0.00448990379753,,,,,,,,,,,,,,,,,
1920,,,,0.00166229593568,,,,,,0.000730859463615,,,,,,,,,,,,,,,,,,,,,,,,,,,,0.000761827116579,,,,,,,,,0.000886467709508,,,0.00367252335292,,,,,,,,0.00194954410625,0.00215119411284,,,,,,,,,,,,,,,,,
1935,,,,0.00229445285175,,,,,,0.00387596762112,,,,,,,,,,,,,,,,,,,,,,,,,,,,0.001935,,,,,,,,,0.00157177270763,,,0.00382057950811,,,,,,,,0.00338050990565,0.00129793853647,,,,,,,,,,,,,,,,,
1950,,,,0.000917781140699,,,,,,0.00365429731807,,,,,,,,,,,,,,,,,,,,,,,,,,,,0.00317443695795,,,,,,,,,0.00070946380379,,,0.00312469954111,,,,,,,,0.00329432888124,0.00311152204627,,,,,,,,,,,,,,,,,
1965,,,,0.00147744618251,,,,,,0.00335075198857,,,,,,,,,,,,,,,,,,,,,,,,,,,,0.00645358233852,,,,,,,,,0.00184254428561,,,0.00185919412052,,,,,,,,0.00262832065099,0.00276544199803,,,,,,,,,,,,,,,,,
1980,,,,0.00471477347164,,,,,,0.00104348241746,,,,,,,,,,,,,,,,,,,,,,,,,,,,0.00676291870751,,,,,,,,,0.00476462077306,,,0.00239521107861,,,,,,,,0.0013330770587,0.00182714865904,,,,,,,,,,,,,,,,,
1995,,,,0.00318090221303,,,,,,0.000801257691937,,,,,,,,,,,,,,,,,,,,,,,,,,,,0.00580544236998,,,,,,,,,0.00586529387347,,,0.00167307517929,,,,,,,,0.00149644393294,0.00268343581585,,,,,,,,,,,,,,,,,
2010,,,,0.00100333333333,,,,,,0.000862980944813,,,,,,,,,,,,,,,,,,,,,,,,,,,,0.00511852544956,,,,,,,,,0.00254189452531,,,0.00229445285175,,,,,,,,0.000942627828054,0.00263709962733,,,,,,,,,,,,,,,,,
2025,,,,0.00231118055451,,,,,,0.00298343435583,,,,,,,,,,,,,,,,,,,,,,,,,,,,0.000801257691937,,,,,,,,,0.00120135224735,,,0.00266711714945,,,,,,,,0.00226289698788,0.000480754615162,,,,,,,,,,,,,,,,,
2040,,,,0.00432679153646,,,,,,0.00125365465739,,,,,,,,,,,,,,,,,,,,,,,,,,,,0.00288096434472,,,,,,,,,0.00152027957955,,,0.0043810554918,,,,,,,,0.0016989686414,0.00164989056876,,,,,,,,,,,,,,,,,
2055,,,,0.00496572949771,,,,,,0.00264390756688,,,,,,,,,,,,,,,,,,,,,,,,,,,,0.00396440411664,,,,,,,,,0.0015912582373,,,0.00380103677377,,,,,,,,0.00361756977972,0.00272898536293,,,,,,,,,,,,,,,,,
2070,,,,0.00254189452531,,,,,,0.00182714865904,,,,,,,,,,,,,,,,,,,,,,,,,,,,0.00524930815547,,,,,,,,,0.00324088679565,,,,,,,,,,,0.00208942442899,0.00208326999904,,,,,,,,,,,,,,,,,
2085,,,,0.00444217726896,,,,,,0.00288897569314,,,,,,,,,,,,,,,,,,,,,,,,,,,,0.00367112456279,,,0.00244087871245,,,,,,0.00568023326986,,,,,,,,0.00476354268259,,,0.00150670538298,0.00225037898043,,,,,,,,,,,,,,,,,
2100,,,,0.00105814565265,,,,,,0.0015337336434,,,,,,,,,,,,,,,,,,,,,,,,,,,,0.00390237997182,,,0.00133884382128,,,,,,0.00250320905151,,,,,,,,0.00609461693263,,,0.00126993656884,0.00287828894002,,,,,,,,,,,,,,,,,
2115,,,,0.00246599990989,,,,,,0.00142794821724,,,,,,,,,,,,,,,,,,,,,,,,,,,,0.00229445285175,,,0.00338050990565,,,,,,,,,,,,,,0.00518482454434,,,0.00211750442739,0.00375002296289,,,,,,,,,,,,,,,,,
2130,,,,0.00189205429215,,,,,,,,,,,,,,,,,,,,,,,,,,,,,,,,,,0.00140802659381,,,0.00313454630777,,,,,,,,,,,,,,0.00455576832159,,,0.00441550424955,0.00250833333333,,,,,,,,,,,,,,,,,
2145,,,,0.00222628552127,,,,,,,,,,0.00233109535531,,,0.00367741492839,,,,,0.000998201159865,,,,,,,,,,,,,,,,0.000874803152461,,,0.0048590845617,,,,,,,,,,,0.00189341108995,,,0.00394166666667,,,0.00457882141556,0.00287828894002,,,,,,,,,,,,,,,,,
2160,,,,,,,,,,,,,,,,,0.00633956382131,,,,,0.00446063834495,,,,,,,,,,,,,,,,0.00548144597711,,,0.0072024108618,,,,,,,,,,,0.0064817735913,,,0.00610219678112,,,,0.00544713813749,,,,,,,,,,,,,,,,,
2175,,,,,,,,,,,,,,,,,0.00394166666667,,,,,0.00199125030515,,,,0.00304224788967,,,,,,,,,,,,0.00426160637423,,,0.00547394485013,,,,,,,,,,,0.00873187090173,,,0.00499203476662,,,,0.00225037898043,,,,0.00699585611471,,,,,,,,,,,,,
2190,,,,,,,,,,,,,,,,,0.00670954647416,,,,,0.00325038160153,,,,0.008837113185,,,,,,,,0.00233989197282,,,,0.0051160162453,,,0.00557804276706,,,,,,,,,,,0.00433331538458,,,0.00436284629316,,,,0.00137853585775,,,,0.0105574024846,,,,,,,,,,,,,
2205,,,,,,,,,,,,,,,,,0.00151180998953,,,,,0.00320503076775,,,,0.00910589796658,,,,,,,,0.00446063834495,,,,0.00199897334761,,,0.0075695743312,,,,,,,,,,,0.00523117577606,,,0.00137667171105,,,,,,,,0.00551414343101,,,,,,,,,,,,,
2220,,,,,,,,,,,,,,,,,0.00245137716396,,,,,0.00430059718075,,,,0.00357041002936,,,,,,,,0.00246808180127,,,,0.00312223299721,,,0.00360690579922,,,,,,,,,,,0.00311152204627,,,0.0031825164746,,,,,,,,0.00212839141137,0.00222628552127,,,,,,,,,,,,
2235,,,,,,,,,,,,,,,,,0.00537929828137,,,,,0.00344,,,,0.00136918974418,,,,,,,,0.00205222101907,,,,0.00244613357044,,,0.00190827219698,,,,,,,,,,,0.00344745719496,,,0.00652206042767,,,,,,,,0.00100588960075,0.00286397790572,,,,,,,,,,,,
2250,,,,,,,,,,,,,,,,,0.00680078528962,,,,,0.000516795682816,,,,0.00450189898203,,,,,,,,0.00196789933121,,,,0.00312469954111,,,0.00167920368032,,,,,,,,,,,0.00170349721977,,,0.00768272014907,,,,,,,,0.00233989197282,0.00494863393047,,,,,,,,,,,,
2265,,,,,,,,,,,,,,,,,0.00481501874924,,,,,0.00127598872339,,,,0.00359835186038,,,,,,,,0.0025640246142,,,,0.00391223863167,,,0.00205222101907,,,,,,,,,,,0.00272898536293,,,0.00523362976867,,,,,,,,0.00195611931583,0.0066815475586,,,,,,,,,,,,
2280,,,,,,,,,,,,,,,,,0.00322101605778,,,,,0.00312223299721,,,,0.00387861694995,,,,,,,,0.00240377307581,,,,0.00206345247367,,,0.00290227879816,,,,,,,,,,,0.00270915167124,,,0.00215119411284,,,,,,,,0.00402929860177,0.00340473240913,,,,,,,,,,,,
2295,,,,,,,,,,,,,,,,,0.00168683299575,,,,,0.00298257346002,,,,0.00371631575324,,,,,,,,0.0015912582373,,,,0.0023033894108,,,0.00495796609284,,,,,,,,,,,0.00199253955767,,,0.000521741208732,,,,,,,,0.00394427186633,0.0018355622814,,,,,,,,,,,,
2310,,,,,,,,,,,,,,,,,0.00304224788967,,,,,0.00182714865904,,,,0.00250730931478,,,,,,,,0.00174960630492,,,,0.00265263495834,,,0.00602554308295,,,,,,,,,,,0.00200794602074,,,0.00208942442899,,,,,,,,0.00157340571867,0.0021162913053,,,,,,,,,,,,
2325,,,,,,,,,,,,,,,,,,,,,,0.00314109367012,,,,0.00328808666079,,,,,,,,0.00179166666667,,,,0.00388457133342,,,0.00362678653295,,,,,,,,,,,0.00175692992967,,,0.000160251538387,,,,,,,,0.0023747526187,0.0018811646806,,,,,,,,,,,,
2340,,,,,,,,,,,,,,,,,,,,0.00010135197197,,0.00321223399245,,0.000775193524225,,0.00188525565611,,,,,,,,0.00211750442739,,,,0.00382796617017,,,0.00475868825296,,,,,,,,,,,0.00291816247358,,,0.00118195694601,,,,,,,,0.0022228222801,0.000961509230325,,,,,,,,,,,,
2355,,,,,,,,,,,,,,,,,,,,0.00107738624045,,0.00394427186633,,0.00108451345978,,0.0012820123071,,,,,,,,0.00382259546789,,,,0.00142254271562,,,0.00576282000799,,,,,,,,,,,0.00285409744442,,,0.00140802659381,,,,,,,,0.00145113939908,0.000258397841408,,,,,,,,,,,,
2370,,,,,,,,,,,,,,,,,,,,0.00184949993241,,0.00588758132758,,0.00351824214314,,0.00233989197282,,,,,,,,0.00162163155152,,,,0.00259686616692,,,0.00387265341135,,,,,,,,,,,0.0035400721901,,,0.00240377307581,,,,,,,,0.00264293607776,0.00161050802889,,,,,,,,,,,,
2385,,,,,,,,,,,,,,,,,,,,0.00239199242845,,0.00561109268424,,0.00346751151564,,0.00448016988765,,,,,,,,0.00310243005114,,,,0.00258894283444,,,0.0031508892043,,,,,,,,,,,0.0032090345554,,,0.00419602060158,,,,,,,,0.00152027957955,0.00215596395043,,,,,,,,,,,,
2400,,,,,,,,,,,,,,,,,,,,0.00136355132731,,0.0031090450481,,0.00649364860631,,0.000862980944813,,,,,,,,0.00278763988189,,,,0.00144048217236,,,0.00258894283444,,,,,,,,,,,0.00205222101907,,,0.00583324404694,,,,,,,,0.00157177270763,0.00450075796086,,,,,,,,,,,,
2415,,,,,,,,,,,,,,,,,,,,0.000862980944813,,0.00136355132731,,0.00539217256771,,0.002365,,,,,,,,0.0037841085843,,,,0.00179596151901,,,0.000160251538387,,,,,,,,,,,0.00296010228802,,,0.00422103890582,,,,,,,,0.0014134876095,0.00286397790572,,,,,,,,,,,,
2430,,,,,,,,,,,,,,,,,,,,0.00339944848468,,0.000942627828054,,0.00331995398228,,0.00455294898329,,,,,,,,0.00123715848262,,,,0.00152365423316,,,0.00208326999904,,,,,,,,,,,0.00313044725239,,,0.00379021144236,,,,,,,,0.001505,0.0038306486976,,,,,,,,,,,,
2445,,,,,,,,,,,,,,,,,,,,0.00254189452531,,0.00172298352349,,0.00514854051596,,0.00142254271563,,,,,,,,0.00150670538298,,,,0.000801257691937,,,0.00258397841408,,,,,,,,,,,0.00365780937782,,,0.00427724534926,,,,,,,,0.00266036860437,0.00263125023093,,,,,,,,,,,,
2460,,,,,,,,,,,,,,,,,,,,0.00192968405589,,0.00050675985985,,0.00821951370554,,0.000577795138628,,,,,,,,0.00259686616692,,,,0.000516795682816,,,0.000931666666667,,,,,,,,,,,0.00043,,,0.00552391492613,,,,,,,,0.00109159414517,0.00131757563561,,,,,,,,,,,,
2475,,,,,,,,,,,,,,,,,,,,0.00072024108618,,0.00190827219698,,0.00725109436185,,0.00167307517929,,,,,,,,0.00150670538298,,,,0.0015782946141,,,0.00240804265835,,,,,,,,,,,0.00199897334761,,,0.00713578345773,,,,,,,,0.00153874858967,0.000577795138628,,,,,,,,,,,,
2490,,,,,,,,,,,,,,,,,,,,0.00170349721977,,0.0031007740969,,0.00771241225414,,0.00518482454434,,,,,,,,0.000897980759507,,,,0.000874803152461,,,0.00162479571365,,,,,,,,,,,0.00174372525869,,,0.00552577420418,,,,,,,,0.00123299995494,0.00221356048031,,,,,,,,,,,,
2505,,,,,,,,,,,,,,,,,,,,0.0035487666089,,0.00307749717935,,0.00785624892822,,0.0064651119265,,,,,,,,0.00125365465739,,,,,,,0.00287828894002,,,,,,,,,,,0.00327478243552,,,0.00377187324519,,,,,,,,0.00306160134207,0.00354079754042,,,,,,,,,,,,
2520,,,,,,,,,,,,,,,,,,,,0.0030210709102,,0.000716666666667,,0.00618579241308,,0.00454448047391,,,,,,,,0.00296010228802,,,,,0.00199253955767,,0.00615374253786,,,,,,,,,,,0.00274680673187,,,0.00231340177612,,,,,,,,0.00336909565842,0.00336528230614,,,,,,,,,,,,
2535,,,0.000874803152461,,,,,,,,,,,,,,,,,0.00174960630492,,0.00125160452575,,0.00411568881774,,0.00239199242845,,,,,,,,0.00417208347898,,,,,0.00451727455934,,0.00503200037538,,,,,,,,,,,0.0014134876095,,,0.00330910696244,,,,,,,,0.00389447507517,0.00262832065099,,,,,,,,,,,,
2550,,,0.00266711714945,,,,,,,,,,,,,,,,,0.00352917404564,,0.00192968405589,,0.00478398485691,,0.00127598872339,,,,,,,,0.00391092557956,,,,,0.00455294898329,,0.0017973908559,,,,,,,,,,,0.00111487169167,,,0.00422103890582,,,,,,,,0.00349701023098,0.00147570698687,,,,,,,,,,,,
2565,,,0.00154374724471,,,,,,,,,,,,,,,,,0.00164989056876,,0.00167307517929,,0.0078050889738,,0.004551256542,,,,,,,,0.00198220205832,,,,,0.00254492359632,,,,,,,,,,,,,0.00316065438021,,,,,,,,,,,0.00301426285442,0.00288897569314,,,,,,,,,,,,
2580,,,0.00134649441968,,,,,,,,,,,,,,,0.00379292067175,,0.00316795850843,,0.00218788837822,,0.00932272879699,,0.00526103628364,,,,,,,,0.00157177270763,,,,,0.0043,,,,,,,0.00260476539784,,,,,0.00140802659381,0.00173338541588,,,,,,,,0.00106540159356,,,0.00222628552127,0.00274680673187,,,,,,,,,,,,
2595,,,0.000716666666667,,,,,,,,,,,,,,,0.0055812645421,,0.00205222101907,,0.000716666666667,,0.00790967568516,,0.00281057625566,,,,,,,,0.000730859463615,,,,,0.00360405674206,,,,,,,0.00613577170733,,,,,0.00339793728279,0.00167307517929,,,,,,,,0.00122043935622,,,0.00131757563561,0.00137667171105,,,,,,,,,,,,
2610,,,0.000871862629343,,,,,,,,,,,,,,,0.0123435301317,,0.00482727004746,,0.00248777287727,,0.00500333944037,,0.00294618868672,,,,,,,,0.00269775266554,,,,,0.00280325703424,,,,,,,0.00560147326851,,,,,0.00259587707293,,,,,,,,,0.000912167747731,,,,0.000810815775761,,,,,,,,,,,,
2625,,,0.00187569616706,,,,,,,,,,,,,0.000931666666667,,0.00914192539895,,0.00236608560942,,0.00323374739617,,0.00173338541588,,0.00319620478067,,,,,,,,0.00252466114338,,,,,0.00358977753876,,,,,,,0.00595911673172,,,,,0.00266615411741,,,,,,0.002795,,,0.00129,,,,0.00122464053683,,,,0.00481821774334,,,,,,,,
2640,,,0.00273180699253,,,,,,,,,,,,,0.000385936811178,,0.00259686616692,,0.00444217726896,,0.00413560757326,,0.00294618868672,,0.00147047705789,,,,,,,,,,,,,0.00435931314671,,,,,,,0.00329978113752,,,,,0.00359835186038,,,,,,0.00303125432417,,,0.00238231038653,,0.00208326999904,,0.00335534730774,,,,0.00483577438358,,,,,,,,
2655,,,0.00530381754546,,,,,,,,,,,,,0.00228548134974,,0.00177438330445,,0.00643125981265,,0.000516795682817,,0.00203966909081,,0.0023343979714,,,,,,,,,,,,,0.00359478171181,,,,0.00149128673001,,,0.00195611931583,,0.00109394418911,,,0.00181303919183,,,,,,0.00719884442887,,,0.00875448742075,,0.00703648428628,,0.00573198942583,,,,0.0062333522727,,,,,,,,
2670,,,0.00661239093588,,,,,,,,,,,,,0.00501717854531,,0.00393579866242,,0.00502944800373,,,,0.00189205429215,,0.000906519595915,,,,,,,,,,,,,0.00442712096062,,,,0.0050964020533,,,0.00396440411664,,0.00708775724597,,,0.00208326999904,,,,,,0.00760882674559,,,0.00428384465171,,0.00646789185129,,0.00301341076597,,,,0.0063650329492,,,,,,,,
2685,,,0.00792654068445,,,,,,,,,,,,,0.00548612897325,,0.00360405674206,,0.00314191113107,,,,0.00121622366364,,0.000705834809129,,,,,,,,,,,,,0.003655,,,,0.00114890406717,,,0.00305572413676,,0.00552995529417,,,0.00601658633372,,,,,,0.0101443147734,,,0.0033036700972,,0.00661355594383,,0.00199640231973,,,,0.00848849237367,,,,,,,,
2700,,,0.00596385525013,,,,,,,,,,,,,0.0050675985985,,0.00632374581329,,,,,,,,,,,,,,,,,,,,,0.00362678653295,,,,0.00136918974418,,,0.00278763988189,,0.00709789503225,,,0.0106540159356,,,,,,0.00875771358416,,,0.00473922081031,,0.0079691915455,,,,,,0.0121074252929,,,,,,,,
2715,,,0.00436284629316,,0.00530381754546,,,,,,,,,,,0.00393579866242,,0.00737888297027,,,,,,,,,,,,,,,,,,,,,0.00458890570349,,,,0.00436872852085,,,0.00436461179386,,0.00723975233616,,,0.0122043935622,,,,,,0.0062825961106,,,0.00665728944675,,0.00878231066153,,,,,,0.0105157249975,0.00302361997906,,,,,0.00427724534926,,
2730,,,0.00340548658621,,0.00862980944813,,,,,,,,,,,0.00276822646794,,0.0104751075306,,,,,,,,,,,,,,,,,,,,,0.00779059850076,,,,0.00478237417793,,,,,0.00487333333333,,,0.0100588960075,,,,,,0.00638195590012,,,0.00577795138628,,0.00813661306824,,,,,,0.00957896784628,0.00365570254686,,,,,0.00545420530926,,
2745,,,0.00334461507501,,0.00784152550351,,,,,,,,,,,0.0144427449107,,0.00929707555573,,,,,,,,,,,,,,,,,,,,,0.00614873270592,,,,0.00244928107366,,,,,0.00445603024626,,,0.0071469311596,,,,,,0.00968030718636,,,0.00111946912021,,0.00835769771594,,,,,,0.00493199981977,0.00593450199165,,,,,0.002509356934,,
2760,,,0.00427724534926,,0.00453826019038,,,,,,,,,,,0.0353921608552,,0.00809325799663,,,,,,,,,,,,,,,,,,,,,0.00294618868672,,,,0.00341903332667,,,,,0.00291816247358,,,0.00506861201689,,,,,,0.00849695909658,,,0.00459226221183,,0.00625514943422,,,,,,,0.00493668382846,,,,,,,
2775,,,0.00626089450478,,0.00203714942451,,,,,,,,,,,0.0324838999437,,0.0087445081178,,,,,,,,,,,,,,,,,,,,,0.00645994603521,,,,0.000912167747731,,,,,0.00144048217236,,,0.00898695427952,,,,,,0.00681775663657,,,0.0030515192027,,0.0043095449618,,,,,,,0.00122043935622,,,,0.000817125721321,,,
2790,,,0.00743988369831,,0.0051902700101,,,,,,,,,,,0.000559734560107,,0.00549361346373,,,,,,,,,,,,,,,,,,,,,0.00456027563738,,,,0.00329666666667,,,,,0.000577795138628,,,0.00561109268424,,,,,,0.0036012054309,,,,,0.00244928107366,,,,,,,0.00233989197282,,,,0.00109394418911,,,
2805,,,0.00718277356674,,0.00348745051737,,,,,,,,,,,0.0336833333333,,0.00356681191293,,,,,,,,,0.00125365465739,,,,,,,,,,,,0.00323215872135,,,,0.000871862629343,,,,,0.00179166666667,,,0.00414738907159,,,,,,0.00419418413467,,,,,0.0020497167826,,,0.00218788837822,,,,0.00326928848868,,,,0.00208326999904,,,
2820,,,0.00395792103116,,0.00233989197282,,,,,,,,,,,0.0387265341135,,0.00135977939387,,,,,,,,,0.00230784471363,,,,,,,,,,,,0.00173486630929,,,,0.00602852570885,,,,,0.00431490472407,,,0.00624158655934,,,,,,0.00126791276426,,,,,0.00263709962733,,,0.00333461850225,,,,0.00120135224735,,,,0.000801257691937,,,
2835,,,0.00272898536293,,0.000886467709508,,,,,,,,,,,0.0165878534041,,0.00297308715349,,,,,,,,,0.00040540788788,,,,,,,,,,,,0.00181303919183,,,,0.00302361997906,,,,,0.00278302992358,,,0.00154374724471,,,,,,0.00209801030079,,,,,0.00542114635274,,,0.00391486341467,,,,0.000716666666667,,,,0.00113314949489,,,
2850,,,0.0049257475462,,0.00121833333333,,,,,,,,,,,0.00414738907159,,0.00316065438021,,,,,,,,,0.00160251538387,,,,,,,,,,,,0.00238231038653,,,,0.00125365465739,,,,,0.000545797072587,,,0.00125160452575,,,,,,0.00338733999212,,,,,0.00412503771027,,,0.00269298883935,,,,0.000577795138628,,,,0.00147047705789,,,
2865,,,0.00758245526052,,0.00205222101907,,,,,,,,,,,0.00142254271563,,0.00181303919183,,,,,,,,,0.00218436426043,,,,,,,,,,,,0.00177003609505,,,,0.00198220205832,,,,,0.000716666666667,,,0.00442305858227,,,,,,0.0017451973782,,,,,0.00339944848468,,,0.00146171892723,,,,0.00109394418911,,,,0.00213802219093,,,
2880,,,0.00524930815547,,0.00254492359632,,,,,,,,,,,0.00105814565265,,0.00417884885797,,,,,,,,,0.00258397841408,,,,,,,,,,,,0.000801257691937,,,,0.00358404992835,,,,,,,,0.00379495132453,,,,,,0.00141166961826,,,,,0.00215596395043,,,0.00131757563561,,,,0.000998201159865,,,,0.00256902759381,,,
2895,,,0.00489121718548,,0.00426461832342,,,,,,,,,,,0.00275707171551,,0.00331995398228,,,,,,,,,0.00358333333333,,,,,,,,,,,,0.000435931314671,,,,0.000559734560107,,,,,0.000705834809129,,,0.00419418413467,,,,,,0.0015912582373,,,,,0.00516497445406,,,0.00319620478067,,,,0.000912167747731,,,,0.000612320268414,,,
2910,,,0.00455294898329,,0.00557435845835,,,,,,,,,,,0.00319620478067,,0.00502331702054,,,,,,,,,0.00271955878774,,,,,,,,,,,,0.00326378529386,,,,0.00365429731807,,,,,0.00425798922289,,,0.00571628715941,,,,,,0.00107738624045,,,,,0.00529072826325,,,0.00152365423316,,,,0.00199640231973,,,,0.00260575111799,,,
2925,,,0.00462513813608,,0.00624528844632,,,,,,,,,,,0.00329432888124,,0.0031484431779,,,,,,,,,0.00186471102915,,,,,,,,,,,,0.00425798922289,,,,0.00490694292701,,,,,0.00403630331423,,,0.00517986915322,,,,,,0.00040540788788,,,,,0.00504932228676,,,0.000788333333333,,,,0.00195611931583,,,,0.00380103677377,,,
2940,,,0.00552995529417,,0.00497554575454,,,,,,,,,,,0.00369969405642,,0.00166229593568,,,,,,,,,0.00120135224735,,,,,,,,,,,,0.00603448653804,,,,0.00397346266568,,,,,0.00303125432417,,,0.00578017324808,,,,,,0.0023475619741,,,,,0.00441899246938,,,0.00195611931583,,,,0.00115781043353,,,,0.00145113939908,,,
2955,,,0.00524343425417,,0.00114666666667,,,,,,,,,,,0.00235738673582,,0.000215,,,,,,,,,0.00121833333333,,,,,,,,,,,,0.00464729461324,,,,0.00267576884071,,,,,0.0023343979714,,,0.00554849979724,,,,,,0.0042064121027,,,,,0.00401397316328,,,0.00326928848868,,,,0.00410756923253,,,,0.00116664880939,,,
2970,,,0.00601530570942,,0.00409065398194,,,,,,,,,,,0.00020270394394,,0.0017973908559,,,,,,,,,0.00218436426043,,,,,,,,,,,,0.00335075198857,,,,0.000365429731807,,,,,0.00233109535531,,,0.00151180998953,,,,,,0.00646789185129,,,,,0.00273837948835,,,0.0031007740969,,,,0.00325038160153,,,,0.000516795682816,,,
2985,,,0.00457096269948,,0.00384136007453,,,,,,,,,,,0.00145113939908,,0.00288897569314,,,,,,,,,0.000516795682816,,,,,,,,,,,,0.00449847505026,,,,0.00264293607776,,,,,0.00327478243552,,,0.00186883802282,,,,,,0.00663449110499,,,,,0.00072024108618,,,0.00373767604565,,,,0.00635574652491,,,,0.000748221966472,,,
3000,,,0.00256602697656,,0.00196789933121,,,,,,,,,,,0.000358333333333,,0.00030405591591,,,,,,,,,0.00324484634117,,,,,,,,,,,,0.00591195704578,,,,0.00265166666667,,,,,0.00310160218453,,,0.00240377307581,,,,,,0.00664029471401,,,,,0.000705834809129,,,0.00226629898979,,,,0.00448933179883,,,,0.00186057488129,,,
3015,,,0.0015912582373,,0.00379292067175,,,,,,,,,,,0.00186471102915,,0.00196789933121,,,,,,,,,0.0018811646806,,,,,,,,,,,,0.00576415672738,,,,,,,,,0.0025165104808,,,0.00301341076597,,,,,,0.00663720008739,,,,,0.00116664880939,,,0.000660734019439,,,,0.00112176076871,,,,0.00243772036041,,,
3030,,,0.000801257691937,,0.00353789524686,,,,,,,,,,,0.00322818361381,,0.00139151496179,,,,,,,,,0.00136355132731,,,,,,,,,,,,0.00238231038653,,,,,,,,,0.00324326310304,,,0.00147744618251,,,,,,0.00436461179386,,,,,0.00199897334761,,,0.00168683299575,,,,0.00182714865904,,,,0.00295141397375,,,
3045,,,0.00121622366364,,0.00290227879816,,,,,,,,,,,0.00440910201238,,0.000917781140699,,,,,,,,,0.00114890406717,,,,,,,,,,,,0.00585828425774,,,,,,,,,0.00416222329744,,,,,,,,,0.00244613357044,,,,,0.00227760229676,,,0.00456083873865,,,,0.00212718449808,,,,0.00208942442899,,,
3060,,,0.00260870604366,,0.00164989056876,,,,,,,,,,,0.00269394227852,,0.00186883802282,,,,,,,,,0.00349994642816,,,,,,,,,,,,0.0042064121027,,,,,,,,,0.000961509230325,,,,,,,,0.000838836826935,0.00184254428561,,,,0.00266036860437,0.00172298352349,,,0.00346158160704,,,,0.00220775212477,,,,0.00096417639004,,,
3075,,,0.00250833333333,,0.000874803152461,,,,,,,,,,,0.0032090345554,,0.0012820123071,,,,,,,,,0.00328261498064,,,,,,,,,,,,0.00265553771496,,,,,,,,,0.00427604438185,,,,,,,,0.00206842465552,0.00175692992967,,,,0.00592020457604,0.00236608560942,,,0.00557574035941,,,,0.00113314949489,,,,0.00112176076871,,,
3090,,,0.00399280463946,,0.00132146803888,,,,,,,,,,,0.00279132236683,,0.00258894283444,,,,,,,,,0.00253987313769,,,,,,,,,,,,,,,,,,,,,0.00252466114338,,,,,,,,0.00247431696523,0.0040749291064,,,,0.00648058489301,0.00387861694995,,,0.00898838293453,,,,0.000521741208732,,,,0.00423379590649,,,
3105,,,0.00374110983236,,0.00199640231973,,,,,,,,,,,0.00205222101907,,0.00315658922819,,,,,,,,,0.00157177270763,,,,,,,,,,,,,,,,,,,,,0.00230784471363,,,,,,,,0.00232115931283,0.00734294862058,,,,0.00792913211588,0.00316633682493,,,0.005284414453,,,,0.00183696080524,,,,0.000660734019439,,,
3120,,,0.00409504612645,,0.00125160452575,,,,,,,,,,,,,0.00369969405642,,,,,,,,,0.00208326999904,,,,,,,,,,,,,,,,,,,,,0.00542446131478,,,,,,,,0.00220775212477,0.00567027826086,,,,0.00633470094883,0.0033036700972,,,0.00471531812288,,,,0.00473705282264,,,,0.000545797072587,,,
3135,,,0.00391223863167,,0.00182714865904,,,,,,,,,,,,,0.00380373829279,,,,,0.00688969802596,,,,0.00251753075674,,,,,,,,,,,,,,,,,,,,,0.00549361346373,,,,,,,,0.00221356048031,0.00358977753876,,,,0.00968587660233,0.00279132236683,,,0.00511049165932,,,,0.00367252335292,,,,0.00050675985985,,,
3150,,,0.00222513170646,,0.00357831315008,,,,,,,,,,,,,,,,,,0.00713974108619,,,,0.00298085092251,,,,,,,,,,,,,,,,,,,,,0.00423076201437,,,,,,,,0.00112176076871,0.00609208822071,,,,0.0108408714799,0.00344596704698,,,0.00461568942726,,,,0.00257302297351,,,,0.000573333333333,,,
3165,,,,,0.00394947711026,,,,,,,,,,,,,,,,0.00355816158836,,0.00589673403014,,0.00389711182231,,0.00224466589942,,,,,,,,,,,,,,,,,,,,,0.00353789524686,,,,,,,,0.00127598872339,,,,,0.00430238822568,0.00144226384549,,,0.00424046282851,,,,,,,,0.00334615035858,,,
3180,,,,,,,,,,,,,,,,,,,,,0.0062825961106,,0.0046737437409,,0.00495951974601,,0.00125160452575,,,,,,0.00509035171236,,,,,,,,,0.00586660724402,,,,,,,,,,,,,,0.00200794602074,,,,,0.00331995398228,0.00224923752513,,,0.00324721975097,,,,,,,,0.0015337336434,,,
3195,,,,,,,,,,,,,,,,,,,,,0.00519570976865,,0.00289252917012,,0.00387861694995,,,,,,,,0.0107952934704,,0.00173190325622,,,,,,,0.00983166370006,,,,,,,,,,,0.00221240002913,0.000761827116579,,0.00519818050433,,,,,0.00133884382128,0.004085,,,0.00137667171105,,,,,,,,0.0013330770587,,,
3210,,,,,,,,,,,,,,,,,,,,,0.00240270449471,,,,0.00358333333333,,,,,,,,0.0102973304254,,0.0032090345554,,,,,,,0.0125037283329,,,,,,,,,,,,0.00355816158836,,0.00477323673087,,,,,0.000417884885797,0.0042064121027,,,0.000730859463615,,,,,,,,0.000676101981131,,,
3225,,,,,,,,,,,,,,,,,,,,,0.00164989056876,,,,0.00251753075674,,,,,,,,0.00811069116112,,0.00530188043161,,,,,,,0.00994721973999,,,,,,,,,,,,0.00759700470946,,0.00305572413676,,,,,0.00134649441968,0.0015337336434,,,0.00129198920704,,,,,,,,0.000501666666667,,,
3240,,,,,,,,,,,,,,,,,,,,,0.000480754615162,,,,0.00272427615259,,,,,,,,0.0075508919635,,0.00616708219321,,,,,,,0.00895861999541,,,,,,,,,,,,0.0107597899866,,0.00249292888877,,,,,0.000453259797957,0.00520015624765,,,0.00220775212477,,,,,,,,0.000358333333333,,,
3255,,,,,,,,,,,,,,,,,,,,,0.00105814565265,,,,0.00104348241746,,,,,,,,0.00416222329744,,0.00466053793986,,,,,,,0.00471586271122,,,,,,,,,,,,0.00613367865876,,0.000865951628108,,,,,0.000480754615162,0.00240910887167,,,0.00211750442739,,,,,,,,0.000516795682816,,,
3270,,,,,,,,,,,,,,,,,,,,,0.000417884885797,,,,,,,,,,,,0.0012820123071,,0.00287024776321,,,,,,,0.00385270828264,,,,,,,,,,,,0.00394427186633,,0.000838836826935,,,,,0.000817125721321,0.00270915167124,,,0.00270915167124,,,,,,,,,,,
3285,,,,,,,,,0.000385936811178,,,,0.00190423066997,,,,,,,,0.004551256542,,,,,,,,,,,,0.00137853585775,,0.00296010228802,,,,,,,0.00212718449808,,,,,,,,,,,,0.00364937475619,,0.00460733623933,,,,,0.00498688780704,0.00250833333333,,,,,,,,,,,,,,
3300,,,,,,,,,0.00129198920704,,,,0.00425979818249,,,,,,,,0.00136918974418,,,,,,,0.00233329761877,,,,,0.00238554210005,,0.00487386026563,,,,,,,0.000590978473005,,,,,,,,,,,,0.00138411323397,,0.0040464703412,,,,,0.00177003609505,0.0015652236262,,,,,,,,0.00133884382128,,,,,,
3315,,,,,,,,,0.00113314949489,,,,0.00269775266554,,,,,,,,0.00254189452531,,,,,,,0.00324326310304,,,,,0.00369969405642,,0.00699585611471,,,,,,,0.00203966909081,,,,,,,,,,,,0.00448933179883,,,,,,,0.00435341819723,0.00455182075902,,,,,,,,0.00516447722427,,,,,,
3330,,,,,,,,,0.0034940715664,,,,0.00680833333333,,,,,,,,0.00491635422736,,,,,,,0.00266615411741,,,,,0.00542635466957,,0.00387927899945,,,,,,,0.00238554210005,,,,,,,,,,,,0.00426702635203,,,,,,,0.00744022886446,0.012395847535,,,,,,,,0.0035400721901,,,,,,
3345,,,,,,,,,0.00546972094555,,,,0.00511852544956,,,,,,,,0.000801257691937,,,,,,,0.00239199242845,,,,,0.00801161535245,,0.000817125721321,,,,,,,0.00147744618251,,,,,,,,,,,,0.0043,,,,,,,0.00109628919542,0.00763746122012,,,,,,,,0.00336528230614,,,,,,
3360,,,,,,,,,0.00446466652979,,,,0.00252058910663,,,,,,,,0.00480754615162,,,,,,,0.00208326999904,,,,,0.00792654068445,,0.00205222101907,,,,,,,0.00194954410625,,,,,,,,,,,,0.00624158655934,,,,,,,0.000974772053126,,,,,,,,,0.00282697521901,,,,,,
3375,,,,,,,,,0.00184254428561,,,0.00437577675644,0.00273837948835,,,,,,,,0.00118629441727,,,,,,,0.0015912582373,,,,,0.0049455192964,,0.000817125721321,,,,,,,0.000577795138628,,,,,,,,,,,,0.00351824214314,,,,,,,0.00243772036041,,,,,,0.00298085092251,,,0.00113314949489,,,,,,
3390,,,,,,,,,0.00136918974418,,,0.00460120093019,0.00132146803888,,,,,,,,0.0018811646806,,,,,,,0.0024628737731,,,,,0.00288897569314,,0.0030783315286,,,,,,,0.00256602697656,,,,,,,,,,,,0.000835769771595,,,,,,,0.00744022886446,,,,,,0.0033736659915,,,0.00125160452575,,,,,,
3405,,,,,,,,,0.000559734560107,,,0.00314681143735,0.00177003609505,,,,,,,,0.00169139406671,,,,,,,0.00243772036041,,,,,0.00427604438185,,0.00369969405642,,,,,,,0.00142254271563,,,,,,,,,,,,0.00329978113752,,,,,,,0.00484002094807,,,,,,0.00248777287727,,,0.000709463803791,,,,,,
3420,,,,,,,,,0.00298343435583,,,0.00489856214732,0.00404202541363,,,,,,,,0.00040540788788,,,,,,,0.00411256779748,,,,,0.0101910403187,,0.00125160452575,,,,,,,0.00163739121776,,,,,,,,,,,,0.00733560059648,,,,,,,0.0034793410136,,,,,,0.00200794602074,,,0.000931666666667,,,,,,
3435,,,,,,,,,0.00245137716396,,,0.00779587088001,0.000716666666667,,,,,,,,0.000365429731807,,,,,,,0.00131757563561,,,,,0.00717597728536,,0.00050675985985,,,,,,,0.00222513170646,,,,,,,,,,,,0.0034734313006,,,,,,,0.00301766880224,,,,,,0.00132146803888,,,0.00353571696328,,,,,,
3450,,,,,,,,,0.000801257691937,,,0.00509035171236,0.00182714865904,,,,,,,,0.000545797072587,,,,,,,0.00109159414517,,,,,0.00778927984833,,0.00112176076871,,,,,,,0.00466329223237,,,,,,,,,,,,0.00295141397375,,,,,,,0.00123715848262,,,,,,0.00143512388161,,,0.00200666666667,,,,,,
3465,,,,,,,,,0.000612320268414,,,0.00228997149424,0.00129,,,,,,,,0.00100588960075,,,,,,,0.0015782946141,,,,,0.00468636438096,,0.00147047705789,,,,,,,0.00263515127122,,,,,,,,,,,,0.00206718273127,,,,,,,0.000974772053126,,,,,,0.00207956859843,,,0.00147744618251,,,,,,
3480,,,,,,,,,0.00216902691956,,,0.00137853585775,0.000874803152461,,,,,,,,0.00246599990989,,,,,,,0.00215119411284,,,,,,,0.00199897334761,,,,,,,0.00335917193831,,,,,,,,,,,,0.00230784471363,,,,,,,0.00250730931478,,,,,,0.00259587707293,,,0.001075,,,,,,
3495,,,,,,,,,0.00164833333333,,,0.00176276692226,0.00198220205832,,,,,,,,0.00228098236634,,,,,,,0.00151180998953,,,,,,,0.00336909565842,,,,,,,0.00427724534926,,,,,,,,,,,,0.0048102162691,,,,,,,0.00137667171105,,,,,,0.00269012649434,,,0.00064100615355,,,,,,
3510,,,,,,,,,,,,0.000365429731807,0.000874803152461,,,,,,,,0.000961509230325,,,,,,,0.000648969268233,,,,,,,0.00483364970229,,,,,,,0.00370801421848,,,,,,,,,,,,0.00485009163716,,,,,,,0.000931666666667,,,,,,0.00462347212,,,0.00248364036133,,,,,,
3525,,,,,,,,,,,,0.00160251538387,0.00273837948835,,,,,,,,0.00117542072846,,,,,,,0.000226629898979,,,,,,,0.00133884382128,,,,,,,0.00230784471363,,,,,,,,,,,,0.00602170610745,,,,,,,0.00326850288528,,,,,,0.00573736316709,,,0.00101857471225,,,,,,
3540,,,,,,,,,,,,0.00210777990101,0.00244087871245,,,,,,,,0.000385936811178,,,,,,,0.000648969268233,,,,,,,0.00174960630492,,,,,,,0.000453259797957,,,,,,,,,,,,0.00490537262148,,,,,,,0.00240270449471,,,,,,0.00368926746719,,,0.000874803152461,,,,,,
3555,,,,,,,,,,,,0.00219257839084,0.00211750442739,,,,,,,,,,,,,,,0.00153205834673,,,,,,,0.00382259546789,,,,,,,0.00304477922936,,,,,,,,,,,,0.00353789524686,,,,,,,0.00291728231598,,,,,,0.00215596395043,,,0.000917781140699,,,,,,
3570,,,,,,,,,,,,0.00192968405589,0.00151858944053,,,,,,,,,,,,,,,0.00377187324519,,,,,,,0.00296703462138,,,,,,,0.000453259797957,,,,,,,,,,,,0.00216072325854,,,,,,,0.00206842465552,,,,,,0.00294182719109,,,0.00308249988736,,,,,,
3585,,,,,,,,,,,,0.00280966239569,0.00149128673001,,,,,,,,,,,,,,,0.00372735570553,,,,,,,0.00160251538387,,,,,,,0.000771873622356,,,,,,,,,,,,0.00494863393047,,,,,,,0.00180452055806,,,,,,0.00189205429215,,,0.00157177270763,,,,,,
3600,,,,,,,,,,,,0.00173190325622,0.0019403013798,,,,,,,,,,,,,,,0.00532121983718,,,,,,,0.00154374724471,,,,,,,0.00186883802282,,,,,,,,,,,,0.00803721776764,,,,,,,0.000545797072587,,,,,,0.00154707070872,,,0.00301766880224,,,,,,
3615,,,,,,,,,,,,0.00280966239569,0.00200794602074,,,,,,,,,,,,,,,0.00571583788939,,,,,,,0.00172596188963,,,,,,,0.00136355132731,,,,,,,,,,,,0.00602042657219,,,,,,,0.00020270394394,,,,,,0.00272427615259,,,0.0034593552707,,,,,,
3630,,,,,,,,,,,,0.00179166666667,0.00172298352349,,,,,,,,,,,,,,,0.00479042215723,,,,,,,0.000545797072587,,,,,,,0.00184949993241,,,,,,,,,,,,0.00304477922936,,,,,,,0.000730859463615,,,,,,0.000660734019439,,,0.00433153712773,,,,,,
3645,,,,,,,,,,,,0.00324484634117,0.00282333923651,,,,,,,,,,,,,,,0.00226629898979,,,,,,,0.00240377307581,,,,,,,0.00129198920704,,,,,,,,,,,,0.0012820123071,,,,,,,0.00142254271563,,,,,,0.00308249988736,,,0.00157340571867,,,,,,
3660,,,,,,,,,,,,0.00285319752403,0.00147047705789,,,,,,,,,,,,,,,0.00161050802889,,,,,,,0.00642806455233,,,,,,,0.000417884885797,,,,,,,,,,,,0.00381519840754,,,,,,,0.00129198920704,,,,,,0.00497812576289,,,0.000286666666667,,,,,,
3675,,,,,,,,,,,,0.00361543949995,0.00311152204627,,,,,,,,,,,,,,,0.00215596395043,,,,,,,,,,,,,,0.000679889696936,,,,,,,,,,,,0.00189205429215,,,,,,,,,,,,,0.00341903332667,,,0.000791584206232,,,,,,
3690,,,,,,,,,,,,0.00224352153742,0.00294880248764,,,,,,,,,,,,,,,0.00189205429215,,,,,,,,,,,,,,0.00268343581585,,0.00328808666079,,,,,0.00201815165711,,,,,0.00170349721977,,,,,,,,,,,,,0.00123715848262,,,0.00304899345869,,,,,,
3705,,,,,,,,,,,0.00324484634117,0.00125160452575,0.00269012649434,,,,,,,,,,,,,,,0.00102611050953,,,,,,,,,,,,,,,,0.00218318829035,,,,,0.00426281140928,,,,,0.0017451973782,,,,,,,,,,,,0.00270440792452,0.000716666666667,,,0.00530768965224,,,,,,
3720,,,,,,,,,,,0.00146171892723,0.00380103677377,0.00481821774334,,,,,,,,,,,,,,,0.000737853493437,,,,,,,,,,,,,,,,0.00179596151901,,,,,0.00164833333333,,,,,0.00304730846632,,,,,,,,,,,,0.0018355622814,0.00388655410071,,,0.00365429731807,,,,,,
3735,,,,,,,,,,,0.00269870442167,0.00657617332159,0.0082154510595,,,,,,,,,,,,,,,0.00222628552127,,,,,,,,,,,,,,,,0.00222628552127,,,,,0.00301341076597,,,,,0.000995625152577,,,,,,,,,,,,0.00457882141556,0.00377187324519,,,0.00223893824043,,,,,,
3750,,,,,,,,,,,0.0055350612262,0.00726807421383,0.00782972682935,,,,,,,,,,,,,,,0.00268630529001,,,,,,,,,,,,,,,,0.00308249988736,,,,,0.00279867280053,,,,,0.00177293541902,,,,,,,,,,,,0.00426281140928,0.0018811646806,,,0.00592107206884,,,,,,
3765,,,,,,,,,,,0.00368508857123,0.00461568942726,0.0049257475462,,,,,,,,,,,,,,,0.00499100579932,,,,,,,,,,,,,,,,0.00363315366528,,,,,0.00104348241746,,,,,0.00342278679506,,,,,,,,,,,,0.0015782946141,0.001935,,,0.00314109367012,,,,,,
3780,,,,,,,,,,,0.00125365465739,0.00800937124734,0.00267768764256,,,,,,,,,,,,,,,0.0019403013798,,,,,,,,,,,,,,,,0.00195611931583,,,,,0.000801257691937,,,,,0.00441550424955,,,,,,,,,,,,0.00072024108618,0.0031007740969,,,0.00645358233852,,,,,,
3795,,,,,,,,,,,0.00273837948835,0.00613200370551,0.000801257691937,,,,,,,,,,,,,,,0.00258397841408,,,,,,,,,,,,,,,,0.00132146803888,,,,,0.00225037898043,,,,,0.00293920718713,,,,,,,,,,,,0.000286666666667,0.00303125432417,,,0.00306160134207,,,,,,
3810,,,,,,,,,,,0.00345192377925,0.00340473240913,0.000160251538388,,,,,,,,,,,,,,,0.00528830076679,,,,,,,,,,,,,,,,0.0017973908559,,,,,0.00385270828264,,,,,,,,,,,,,,,,,0.0010135197197,0.00516049766119,,,0.00064100615355,,,,,,
3825,,,,,,,,,,,0.00190423066997,0.00192835278008,0.0078050889738,,,,,,,,,,,,,,,0.00456534104847,,,,,,,,,,,,,,,,0.00255800812265,,,,,0.000516795682817,,,,,,,,,,,,,,,,,0.00164989056876,0.00676633537777,,,0.00275707171551,,,,,,
3840,,,,,,,,,,,0.00132146803888,0.00198220205832,0.00634320852916,,,,,,,,,,,,,,,0.00391223863167,,,,,,,,,,,,,,,,0.00244087871245,,,,,0.00163582208351,,,,,,,,,,,,,,,,,0.00243772036041,0.00614204657351,,,,,,,,,
3855,,,,,,0.0062825961106,,,,,0.00177003609505,0.00208942442899,0.00189205429215,,,,,,,,,,,,,,,0.00352626218537,,,,,,,,,,,,,,,,0.000385936811178,,,,,0.00125365465739,,,,,,,,,,,,,,,,,0.0033736659915,0.00654211081295,,,,,,,,,
3870,,,,,,0.00575345427644,,,,,0.00192968405589,0.00363315366528,,,,,,,,,,,,,,,,0.00474517766908,,,,,,,,0.00244087871245,,,,,,,,0.000143333333333,,,,,0.000775193524225,,,,,,,,,,,,,,,,,0.00231118055451,0.00435931314671,,,,,,,,,
3885,,,,,,0.00256902759381,,,,,0.00247120134977,0.00389447507517,,,,,,,,,,,,,,,,,,,,,,,,0.00374110983236,,,,,,,,0.000160251538387,,,,,0.00199897334761,,,,,,,,,,,,,,,,,0.00147047705789,0.00223204564868,,,,,,,,,
3900,,,,,,0.00309497127971,,,,,0.00201815165711,0.00294095411578,,,,,,,,,,,,,,,,,0.00240377307581,0.00240270449471,,,,,,0.00206718273127,,,,,,,,0.00114666666667,,,,,0.00258397841408,,,,,,,,,,,,,,,,,0.00166229593568,0.000931666666667,,,,,,,,,
3915,,,,,,0.00631521201368,,,,,0.000737853493437,0.00568023326986,,,,,,,,,,,,,,,,,0.00380103677377,0.00395402607758,,,,,,0.00197701303879,,,,,,,,0.00123715848262,,,,,0.00400372361406,,,,,,,,,,,,,,,,,0.00101857471225,0.00256902759381,,,,,,,,,
3930,,,,,,0.0062098246531,,,,,0.00106540159356,0.00465116114535,,,,,,,,,,,,,,,,,0.00221356048031,0.00050675985985,,,,,,0.00136918974418,,,,,,,,0.000871862629343,,,,,0.00377663614286,,,,,,,,,,,,,,,,,0.0037847871656,0.00174960630492,,,,,,,,,
3945,,,,,,0.00160251538387,,,,,0.00166229593568,0.00471531812288,,,,,,,,,,,,,,,,,0.00210777990101,0.00244087871245,,,,,,0.00263515127122,,,,,,,,0.00157666666667,,,,,0.00308915756226,,,,,,,,,,,,,,,,,0.0015652236262,0.00114890406717,,,,,,,,,
3960,,,,,,0.00122464053683,,,,,0.000995625152577,,,,,,,,,,,,,,,,,,0.00192835278008,0.00459170296416,,,,,,0.00122043935622,,,,,,,,0.000648969268233,,,,,0.00446063834495,,,,,,,,,,,,,,,,,0.00454448047391,,,,,,,,,,
3975,,,,,,0.00164989056876,,0.0010135197197,,,0.00096417639004,,,,0.0023343979714,,,,0.000748221966472,,,,,,,,,,0.00189341108995,0.00740424540382,,,,,,,,,,,,,,0.00208696483493,,,,,0.00317362787499,,,,,,,,,,,,,,,,,0.00414738907159,,,,,,0.000385936811178,,,,
3990,,,,,,0.00435341819723,,0.00309497127971,,,0.000559734560107,,,,0.00244613357044,,,,0.00197181036388,,,,,,,,,,0.00129,0.00412005427418,,,,,,,,,,,,,,0.0015912582373,,,,,0.00416653999807,,,,,,,,,,,,,,,,,0.00548144597711,,,,,,0.000934419011412,,,,
4005,,,,,,0.00224923752513,,0.00365780937782,,,0.00160251538387,,,,0.00215596395043,,,,0.00143512388161,,,,,,,,,,0.00373767604565,0.00192301846065,,,,,,,,,,,,,,0.00459170296416,,,,,0.00430238822568,,,,,,,,,,,,,,,,,0.00325984875246,,,,,,0.00315333333333,,,,
4020,,,,,,0.0014134876095,,0.00291023147228,,,0.00191230518252,,,,0.00302446919126,,,,0.00137667171105,,,,,,,,,,0.0049413633971,0.00141892760758,,,,,,,,,,,,,,0.00346677083177,,,,,0.00216902691956,,,,,,,,,,,,,,,,,0.00205347199207,,,,,,0.00202830594339,,,,
4035,,,,,,0.00170349721977,,0.00158316841246,,,0.00318332329841,,,,0.00326378529386,,,,0.00243666666667,,,,,,,,,,0.00102611050953,0.00109159414517,,,,,,,,,,,,,,0.00446984029046,,,,,0.000143333333333,,,,,,,,,,,,,,,,,0.00215,,,,,,0.000862980944813,,,,
4050,,,,,,0.00182433549546,,0.000775193524225,,,0.00340473240913,,,,0.00587666666667,,,,0.00341677926644,,,,,,,,,,0.00254492359632,0.00219842683653,,,,,,,,,,,,,,0.0054225672989,,,,,0.00114890406717,,,,,,,,,,,,,,,,,0.00130779394401,,,,,,0.00240804265835,,,,
4065,,,,,,0.00147744618251,,0.00227760229676,,,0.00237258883454,,,,0.00417884885797,,,,0.00388655410071,,,,,,,,,,0.00617873076682,0.00439685367305,,,,,,,,,,,,,,0.00164989056876,,,,,0.00235738673582,,,,,,,,,,,,,,,,,0.00190827219698,,,,,,0.00116664880939,,,,
4080,,,,,,0.000917781140699,,0.00467978394563,,,0.00244087871245,,,,0.000676101981131,,,,0.0010135197197,,,,,,,,,,0.00359906546512,0.00281057625566,,,,,,,,,,,,,,0.00139151496179,,,,,0.0021761191246,,,,,,,,,,,,,,,,,0.00137853585775,,,,,,0.0022228222801,,,,
4095,,,,,,0.00172298352349,,0.00295489236503,,,0.00320262609258,,,,0.00125160452575,,,,0.00301341076597,,,,,,,,,,0.00147744618251,0.00060811183182,,,,,,,,,,,,,,0.0018811646806,,,,,0.00129198920704,,,,,,,,,,,,,,,,,0.00250833333333,,,,,,0.00252466114338,,,,
4110,,,,,,0.000761827116579,,0.00349994642816,,,0.0020270394394,,,,0.00112176076871,,,,0.00394231812798,,,,,,,,,,0.00137853585775,0.000862980944813,,,,,,,,,,,,,,0.00151180998953,,,,,0.000934419011412,,,,,,,,,,,,,,,,,0.00432204073455,,,,,,0.00448818758273,,,,
4125,,,,,,0.0015912582373,,0.00144226384549,,,0.00224923752513,,,,0.00145113939908,,,,0.00358404992835,,,,,,,,,,0.00112176076871,,,,,,,,,,,,,,,0.00281057625566,,,,,0.00152027957955,,,,,,,,,,,,,,,,,0.00143333333333,,,,,,0.00553645293587,,,,
4140,,,,,,0.000934419011412,,0.00344745719496,,,0.00160251538387,,,,0.00216665769229,,,,0.00397540109786,,,,,,,,,,0.00132146803888,,,,,,,,,,,,,,,0.000545797072587,,,,,0.00271294069641,,,,,,,,,,,,,,,,,0.00200794602074,,,,,,0.00325354037934,,,,
4155,,,,,,0.000974772053126,,0.00129793853647,,,0.00121833333333,,,,0.000160251538387,,,,0.00304899345869,,,,,,,,,,,,,,,,,,,,,,,,,0.000215,,,,,0.000871862629343,,,,,,,,,,,,,,,,,0.0023475619741,,,,,,0.00226629898979,,,,
4170,,,,,,0.000521741208732,,0.00189341108995,,,0.00290404794114,,,,0.00186883802282,,,,0.00259686616692,,,,,,,,,,,,,,,,,,,,,,,,,0.000453259797957,,,,,0.00186333333333,,,,,,,,,,,,,,,,,0.00218788837822,,,,,,0.00225037898043,,,,
4185,,,,,,0.00129793853647,,0.00157177270763,,,0.0070801443802,,,,0.00308249988736,,,,0.00136166666667,,,,,,,,,,,,,,,,,,,,,,,,,0.00108451345978,,,,,0.00264390756688,,,,,,,,,,,,,,,,,0.00247535463228,,,,,,0.00253379929925,,,,
4200,,,,,,0.00311152204627,,0.00288274656843,,,0.00424288456648,,,,0.00272898536293,,,,0.00187569616706,,,,,,,,,,,,,,,,,,,,,,,,,0.00221240002913,,,,,,,,,,,,,,,,,,,,,,0.0039050113814,,,,,,0.00244087871245,,,,
4215,,,,,,0.00318090221303,,0.00236608560942,,,0.00325038160153,,,,0.00280966239569,,,,0.00307749717935,,,,,,,,,,,,,,,,,,,,,,,,,,,,,,,,,,,,,,,,,,,,,,,0.00118195694601,,,,,,0.00153874858967,,,,
4230,,,,,,0.0015782946141,,0.00358333333333,,,0.00189205429215,,,,0.00451272429421,,,,0.00391223863167,,,,,,,,,,,,,,,,,,,,,,,,,,,,,,,,,,,,,,,,,,,,,,,,,,,,,0.00222166666667,,,,
4245,,,,,,0.00250320905151,0.00112176076871,0.00263125023093,,,0.00203966909081,,,,0.00377187324519,,,,0.00466219071062,,,,,,,,,,,,,,,,,,,,,,,,,,,,,,,,,,,,,,,,,,,,,,,,,,,,0.00219842683653,0.00355888325181,,,,
4260,,,,,,0.00135977939387,0.00102611050953,0.0030783315286,,,0.00050675985985,,,,0.00479524446139,,,,0.00378207210989,,,,,,,,,,,,,,,,,,,,,,,,,,,,,,,,,,,,,,,,,,,,,,,,,,,,0.00391814192075,0.0030210709102,,,,
4275,,,,,,,0.00298257346002,0.00257302297351,,,0.00347638741288,,,,0.00409504612645,,,,0.00172149240809,,,,,,,,,,,,,,,,,,,,,,,,,,,,,,,,,,,,,,,,,,,,,,,,,,,,0.00284237625549,0.00428684097624,,,,
4290,,,,,,,0.000801257691937,0.00259686616692,,,0.00260870604366,,,,0.00543250351536,,,,,,,,,,,,,,,,,,,,,,,,,,,,,,,,,,,,,,,,,,,,,,,,,,,,,,,,0.00480220146276,0.0036627206039,,,,
4305,,,,,,,,0.00205222101907,,,0.00108451345978,,,,0.0040445659704,,,,,,,,,,,,,,,,,,,,,,,,,,,,,,,,,,,,,,,,,,,,,,,,,,,,,,,,0.00405914331411,0.00301085305372,,,,
4320,,,,,,,,,,,,,,,,,,,,,,,,,,,,,,,,,,,,,,,,,,,,,,,,,,,,,,,,,,,,,,,,,,,,,,,,,,,,
