x, y, fluorescence
444, 750, 59.52734375
460, 778, 74.9453125
422, 806, 42.8828125
412, 758, 79.40625
382, 782, 54.85546875
348, 762, 48.125
516, 782, 62.2890625
506, 754, 36.421875
474, 740, 61.11328125
490, 708, 75.36328125
572, 762, 62.09765625
610, 742, 56.82421875
630, 700, 58.2578125
668, 686, 63.14453125
642, 670, 22.2109375
620, 650, 62.95703125
608, 678, 40.95703125
590, 694, 71.32421875
580, 722, 62.71484375
548, 732, 83.75
552, 692, 49.28515625
522, 714, 137.3125
580, 662, 93.26953125
546, 652, 74.28515625
520, 668, 59.30078125
516, 650, 38.484375
486, 674, 76.0625
482, 642, 83.82421875
458, 656, 68.81640625
464, 688, 51.3671875
444, 716, 62.0
434, 692, 33.16796875
390, 680, 58.26171875
400, 722, 61.83203125
360, 720, 60.8515625
344, 692, 67.3125
328, 712, 51.98046875
314, 738, 50.5234375
282, 712, 59.0859375
296, 682, 76.64453125
262, 678, 52.1171875
260, 650, 32.57421875
288, 628, 49.88671875
308, 658, 24.7734375
324, 650, 41.78515625
346, 662, 42.47265625
372, 670, 70.6015625
424, 664, 19.44140625
394, 648, 100.9765625
432, 632, 76.32421875
430, 610, 95.203125
460, 610, 24.8046875
458, 586, 56.28125
466, 556, 52.2734375
438, 554, 50.53125
446, 516, 61.23828125
416, 528, 22.63671875
426, 476, 86.9375
394, 492, 78.3828125
394, 468, 39.94921875
416, 572, 53.77734375
404, 548, 87.7421875
386, 528, 42.3984375
400, 588, 56.05859375
386, 614, 70.375
362, 630, 60.28515625
328, 620, 56.60546875
356, 600, 56.3359375
374, 564, 101.75
362, 536, 32.8125
358, 508, 26.56640625
332, 546, 67.921875
294, 554, 74.89453125
302, 522, 47.7109375
322, 496, 35.328125
290, 580, 69.765625
266, 604, 54.53125
252, 568, 62.18359375
238, 598, 52.55078125
268, 548, 63.0390625
268, 518, 33.78515625
282, 482, 37.76171875
290, 446, 67.2578125
252, 484, 60.65625
230, 536, 70.51953125
208, 510, 33.421875
208, 566, 55.82421875
198, 468, 56.4296875
192, 440, 35.59765625
234, 444, 48.4375
222, 412, 75.5234375
264, 416, 38.625
306, 410, 71.95703125
292, 380, 63.0859375
260, 380, 82.08203125
254, 350, 59.8515625
234, 308, 43.09765625
212, 372, 64.61328125
208, 346, 26.6640625
194, 402, 29.89453125
180, 376, 37.90234375
678, 642, 63.1796875
652, 622, 45.5859375
624, 622, 39.8203125
602, 600, 86.875
592, 632, 78.15625
572, 624, 75.5
536, 616, 66.7421875
508, 608, 70.9453125
550, 582, 59.296875
506, 560, 63.2421875
490, 530, 40.84765625
538, 502, 40.44921875
700, 598, 70.6796875
666, 592, 69.36328125
642, 588, 61.65234375
658, 564, 51.2890625
622, 534, 59.11328125
604, 570, 46.53125
572, 544, 72.5859375
586, 520, 58.29296875
718, 544, 79.65234375
690, 548, 57.8828125
698, 520, 60.265625
670, 522, 66.01953125
646, 496, 50.79296875
718, 466, 63.16015625
738, 434, 42.30859375
746, 402, 67.0859375
732, 402, 68.68359375
706, 438, 66.52734375
670, 412, 31.9296875
688, 382, 48.05078125
726, 372, 31.26953125
738, 336, 68.91796875
696, 344, 85.3515625
714, 304, 59.625
672, 324, 72.6484375
672, 368, 49.9296875
652, 350, 88.5625
650, 388, 78.421875
640, 422, 83.80859375
638, 448, 77.5703125
610, 462, 64.58984375
584, 480, 83.8984375
560, 482, 38.75390625
566, 448, 55.06640625
536, 462, 39.05078125
476, 478, 35.453125
438, 458, 45.3125
480, 446, 58.34765625
508, 436, 54.5546875
536, 432, 27.28125
556, 418, 50.4921875
558, 388, 55.44921875
596, 370, 54.30859375
612, 354, 58.1953125
628, 320, 26.3984375
648, 290, 63.05078125
676, 266, 44.66015625
634, 248, 45.78515625
620, 280, 67.4921875
600, 320, 68.20703125
576, 306, 62.203125
578, 340, 51.15234375
542, 324, 41.75390625
530, 298, 35.84375
530, 266, 81.7421875
562, 232, 68.60546875
592, 230, 68.01171875
544, 194, 69.62890625
522, 218, 63.046875
512, 268, 72.3671875
492, 238, 40.53125
458, 250, 55.5234375
494, 200, 46.74609375
464, 200, 61.203125
434, 200, 61.19140625
428, 232, 37.6875
520, 398, 61.75390625
520, 364, 45.58203125
482, 412, 65.1875
472, 384, 58.3671875
444, 388, 64.0859375
442, 426, 36.2421875
426, 406, 45.11328125
412, 448, 76.12890625
402, 416, 65.0390625
402, 390, 72.64453125
368, 448, 59.80078125
370, 414, 61.74609375
328, 446, 57.93359375
364, 386, 52.078125
324, 374, 67.01953125
354, 360, 33.9921875
392, 376, 73.1640625
434, 364, 75.13671875
452, 356, 69.91015625
472, 332, 22.20703125
498, 314, 44.91015625
490, 288, 78.30078125
462, 314, 69.98046875
440, 290, 18.65234375
432, 308, 51.09375
434, 342, 54.7890625
390, 336, 46.2890625
384, 310, 41.08203125
372, 314, 59.53125
338, 328, 69.8125
306, 344, 40.98828125
270, 316, 40.66796875
268, 286, 69.51171875
268, 260, 69.34765625
312, 266, 49.5625
346, 294, 51.32421875
346, 252, 45.3671875
376, 264, 60.6328125
376, 226, 45.53515625
398, 240, 39.41796875
412, 264, 22.00390625
416, 290, 44.3203125
388, 294, 41.0703125
