x, y, fluorescence
698, 832, 59.26953125
748, 796, 47.17578125
648, 836, 42.25
616, 856, 40.09375
592, 824, 34.66015625
608, 774, 55.84375
650, 792, 39.37890625
684, 788, 36.79296875
728, 770, 58.76171875
680, 760, 51.625
710, 732, 49.13671875
772, 740, 43.0234375
758, 714, 56.1875
794, 710, 31.515625
772, 666, 45.94140625
798, 634, 50.4609375
736, 692, 27.57421875
726, 658, 27.41015625
752, 632, 35.91015625
778, 592, 38.74609375
782, 562, 52.48828125
810, 562, 46.90234375
730, 598, 36.00390625
726, 566, 44.6484375
730, 532, 65.29296875
704, 546, 60.9140625
706, 506, 48.01171875
766, 490, 48.98046875
726, 480, 49.078125
802, 484, 54.49609375
778, 528, 23.34765625
818, 442, 49.953125
790, 442, 41.72265625
808, 410, 54.06640625
830, 374, 45.75
800, 348, 22.66015625
798, 324, 21.34375
808, 300, 21.6484375
776, 282, 24.80859375
776, 254, 33.6484375
746, 316, 36.8515625
784, 376, 32.7734375
736, 362, 29.81640625
742, 402, 67.1015625
746, 442, 52.09375
708, 446, 34.30078125
698, 406, 32.19921875
710, 368, 68.296875
680, 380, 54.52734375
654, 362, 51.921875
710, 332, 48.23828125
710, 292, 50.421875
654, 326, 39.11328125
630, 300, 104.33984375
634, 276, 58.09375
658, 276, 53.859375
636, 250, 39.92578125
690, 234, 28.296875
680, 198, 34.3203125
626, 212, 19.26171875
662, 172, 47.9375
616, 170, 61.765625
584, 160, 56.16015625
598, 198, 42.91796875
562, 184, 43.00390625
548, 154, 28.109375
622, 132, 26.51953125
568, 110, 24.55859375
532, 124, 18.1953125
506, 140, 44.71875
494, 176, 29.46875
468, 148, 33.92578125
436, 150, 27.1484375
430, 106, 29.828125
400, 144, 39.94921875
382, 168, 40.0390625
366, 144, 41.8203125
324, 150, 41.96484375
324, 180, 39.7890625
326, 212, 37.97265625
306, 244, 19.08203125
264, 232, 41.73828125
242, 268, 42.0546875
272, 284, 39.578125
672, 722, 46.2421875
700, 694, 41.28125
692, 666, 38.9921875
708, 632, 41.61328125
678, 616, 55.75390625
666, 568, 34.2578125
674, 534, 50.28515625
634, 550, 53.54296875
626, 592, 47.0625
630, 626, 34.24609375
636, 650, 42.86328125
652, 680, 42.19921875
634, 712, 41.80078125
604, 736, 27.5234375
614, 692, 38.55859375
588, 688, 41.3515625
578, 648, 53.046875
600, 628, 54.796875
610, 612, 50.375
582, 610, 56.79296875
556, 598, 50.609375
592, 568, 18.265625
608, 536, 33.68359375
562, 546, 52.62890625
570, 502, 77.21875
604, 498, 57.1328125
614, 478, 50.078125
650, 500, 21.984375
678, 480, 39.48828125
650, 434, 67.3515625
646, 400, 62.90625
606, 360, 59.44140625
590, 390, 49.77734375
572, 420, 31.73046875
604, 424, 33.046875
596, 456, 60.87890625
550, 462, 45.61328125
550, 428, 41.765625
520, 450, 69.94921875
516, 396, 55.5625
554, 358, 60.0390625
532, 366, 25.37890625
528, 328, 50.69140625
570, 312, 48.41015625
606, 310, 45.5234375
596, 274, 56.0546875
550, 274, 45.94140625
572, 238, 48.66796875
606, 238, 34.77734375
536, 218, 42.26171875
528, 266, 27.20703125
520, 236, 30.4609375
490, 236, 37.1953125
502, 202, 43.54296875
464, 256, 51.5859375
516, 290, 18.00390625
484, 304, 26.73046875
472, 332, 40.52734375
500, 350, 63.25
488, 392, 51.38671875
448, 378, 55.65625
434, 392, 59.15234375
422, 360, 53.609375
404, 336, 50.9765625
376, 358, 87.98828125
444, 330, 38.90625
432, 312, 42.8828125
418, 294, 27.4453125
378, 324, 51.3046875
390, 282, 36.39453125
424, 246, 55.609375
436, 222, 47.5234375
452, 190, 29.1875
420, 190, 34.72265625
388, 202, 56.84765625
378, 222, 33.98046875
364, 200, 27.984375
350, 250, 41.81640625
316, 280, 42.65625
342, 312, 51.98046875
548, 830, 35.26953125
510, 840, 29.234375
550, 782, 45.98046875
500, 784, 56.71484375
466, 766, 55.27734375
462, 732, 44.36328125
500, 728, 63.19921875
528, 710, 55.703125
546, 744, 34.5703125
562, 704, 23.6328125
536, 662, 35.55078125
498, 692, 32.640625
502, 658, 48.45703125
472, 680, 64.28125
524, 620, 33.4375
480, 620, 39.51953125
450, 642, 35.984375
458, 592, 55.73828125
510, 578, 56.82421875
494, 540, 81.32421875
502, 512, 51.60546875
528, 496, 60.71484375
486, 472, 42.4140625
476, 446, 60.28125
436, 462, 43.73046875
444, 506, 67.57421875
464, 536, 91.1796875
438, 564, 54.6328125
414, 528, 64.36328125
408, 496, 63.98046875
392, 430, 47.4375
398, 400, 37.9140625
368, 412, 56.6640625
368, 452, 41.10546875
368, 484, 40.71875
356, 510, 55.73828125
340, 456, 31.45703125
322, 434, 44.77734375
306, 472, 69.921875
282, 454, 57.92578125
264, 484, 56.66796875
324, 386, 89.4453125
350, 372, 56.0625
328, 352, 55.69140625
290, 338, 46.859375
282, 378, 23.8671875
290, 406, 38.87109375
258, 430, 51.421875
246, 404, 44.11328125
244, 374, 55.99609375
230, 334, 58.02734375
200, 348, 51.08984375
258, 318, 18.62890625
204, 388, 21.0390625
174, 386, 36.98046875
208, 430, 57.03515625
170, 442, 50.3515625
184, 466, 20.2421875
222, 466, 20.6953125
210, 486, 29.8359375
464, 826, 37.3203125
434, 842, 47.3671875
392, 832, 53.18359375
404, 804, 58.33203125
424, 768, 43.1640625
432, 738, 50.43359375
406, 712, 62.2734375
428, 674, 56.25390625
388, 688, 64.13671875
404, 628, 53.9765625
368, 652, 42.49609375
378, 602, 63.7890625
342, 620, 24.9140625
396, 584, 48.453125
362, 564, 56.8046875
342, 542, 38.03125
326, 516, 62.04296875
308, 558, 58.0546875
296, 502, 51.41015625
286, 528, 59.92578125
352, 818, 63.46484375
372, 790, 63.24609375
368, 758, 45.7578125
320, 810, 51.0234375
286, 766, 57.140625
316, 762, 37.95703125
344, 740, 42.6171875
292, 746, 37.46875
312, 722, 49.5234375
346, 696, 33.0390625
326, 668, 59.18359375
286, 660, 42.73828125
266, 682, 50.1796875
282, 708, 51.734375
230, 724, 14.5546875
240, 692, 11.90625
204, 684, 11.9375
234, 652, 52.39453125
290, 626, 37.140625
248, 626, 36.26953125
252, 586, 55.47265625
290, 592, 56.65625
208, 624, 48.3828125
188, 634, 48.71875
158, 644, 45.25
154, 610, 50.171875
192, 590, 37.8671875
224, 594, 30.87890625
226, 566, 44.13671875
206, 534, 67.0
188, 508, 50.08984375
188, 566, 13.14453125
158, 576, 51.24609375
846, 448, 37.47265625
