/Volumes/home/jpm67/shared/DATA/Christian/mouse embryos/130503_Embryos_slide3/130503_embryos_slide3_L4_Sum.session,/Volumes/home/jpm67/shared/DATA/Christian/mouse embryos/130503_Embryos_slide3/130503_embryos_slide3_L4_Sum.ome.tiff,34
11,0,3706,503523,135.866972477,1,3706,111489,30.0833783055,2,3706,61457,16.5831084727,3,3706,260977,70.4201295197,4,3706,178627,48.1994063681
13,0,3865,456144,118.019146184,1,3865,139007,35.9655886158,2,3865,65734,17.0075032342,3,3865,287576,74.4051746442,4,3865,166873,43.1754204398
15,0,3978,445011,111.868024133,1,3978,71286,17.9200603318,2,3978,76800,19.3061840121,3,3978,306581,77.0691302162,4,3978,255122,64.1332327803
16,0,3129,391153,125.008948546,1,3129,55781,17.8271013103,2,3129,47491,15.1776925535,3,3129,206253,65.9165867689,4,3129,175458,56.0747842761
19,0,3989,457316,114.644271747,1,3989,67085,16.8174981198,2,3989,84574,21.2018049637,3,3989,279098,69.9669089997,4,3989,257477,64.5467535723
20,0,3486,475944,136.530120482,1,3486,52462,15.049340218,2,3486,53406,15.3201376936,3,3486,235109,67.4437751004,4,3486,161332,46.2799770511
21,0,3580,389600,108.826815642,1,3580,102511,28.6343575419,2,3580,61632,17.2156424581,3,3580,265501,74.1622905028,4,3580,163857,45.7701117318
24,0,2095,177277,84.6190930788,1,2095,68491,32.692601432,2,2095,41539,19.8276849642,3,2095,158172,75.4997613365,4,2095,77395,36.9427207637
26,0,2101,130528,62.1266063779,1,2101,77542,36.9071870538,2,2101,39640,18.8672060923,3,2101,143570,68.3341266064,4,2101,126077,60.0080913851
27,0,1845,158009,85.6417344173,1,1845,79850,43.2791327913,2,1845,39385,21.3468834688,3,1845,128961,69.8975609756,4,1845,139944,75.8504065041
28,0,3327,393019,118.13014728,1,3327,89855,27.0078148482,2,3327,61406,18.4568680493,3,3327,230854,69.3880372708,4,3327,176943,53.1839495041
30,0,1416,92141,65.0713276836,1,1416,85494,60.3771186441,2,1416,31512,22.2542372881,3,1416,101193,71.4639830508,4,1416,92212,65.1214689266
31,0,1023,70731,69.1407624633,1,1023,38611,37.742913001,2,1023,19698,19.2551319648,3,1023,77303,75.5650048876,4,1023,53051,51.8582600196
35,0,1472,85351,57.9830163043,1,1472,39582,26.8899456522,2,1472,34950,23.7432065217,3,1472,107921,73.3158967391,4,1472,69390,47.1399456522
41,0,1364,82922,60.793255132,1,1364,62491,45.814516129,2,1364,29842,21.8782991202,3,1364,91133,66.8130498534,4,1364,81551,59.7881231672
44,0,3395,369139,108.730191458,1,3395,45536,13.4126656848,2,3395,47767,14.069808542,3,3395,212636,62.6321060383,4,3395,165740,48.8188512518
45,0,1832,130672,71.327510917,1,1832,59376,32.4104803493,2,1832,37588,20.5174672489,3,1832,120899,65.9929039301,4,1832,108760,59.3668122271
46,0,3233,353464,109.330034024,1,3233,82073,25.3860191772,2,3233,68380,21.150634086,3,3233,233918,72.353232292,4,3233,189862,58.7262604392
47,0,3001,338249,112.712095968,1,3001,82202,27.3915361546,2,3001,52571,17.5178273909,3,3001,203243,67.7250916361,4,3001,138466,46.1399533489
50,0,1556,82414,52.9652956298,1,1556,100378,64.5102827763,2,1556,31848,20.4678663239,3,1556,112918,72.5694087404,4,1556,91781,58.985218509
51,0,3566,365734,102.561413348,1,3566,115913,32.5050476725,2,3566,58554,16.4200785193,3,3566,239725,67.2251822771,4,3566,133682,37.4879416713
53,0,1351,69925,51.7579570688,1,1351,73788,54.6173205033,2,1351,27858,20.6202812731,3,1351,90925,67.3019985196,4,1351,56845,42.0762398224
56,0,3234,307930,95.2164502165,1,3234,48904,15.1218305504,2,3234,44112,13.6400742115,3,3234,213475,66.0095856524,4,3234,143251,44.2952999382
58,0,2,84,42.0,1,2,10,5.0,2,2,19,9.5,3,2,122,61.0,4,2,13,6.5
117,0,1692,101738,60.1288416076,1,1692,72809,43.0313238771,2,1692,35113,20.7523640662,3,1692,118442,70.0011820331,4,1692,75152,44.4160756501
122,0,3357,272052,81.0402144772,1,3357,56471,16.8218647602,2,3357,53222,15.854036342,3,3357,231573,68.982126899,4,3357,128582,38.3026511766
123,0,1483,79885,53.8671611598,1,1483,71255,48.0478759272,2,1483,29271,19.7376938638,3,1483,105874,71.3917734322,4,1483,88227,59.4922454484
124,0,3270,349258,106.806727829,1,3270,53456,16.3474006116,2,3270,52688,16.1125382263,3,3270,207927,63.5862385321,4,3270,124666,38.1241590214
125,0,954,53796,56.3899371069,1,954,53683,56.2714884696,2,954,21345,22.3742138365,3,954,66399,69.6006289308,4,954,38094,39.9308176101
126,0,1449,84909,58.5983436853,1,1449,44246,30.5355417529,2,1449,37531,25.9013112491,3,1449,105968,73.1318150449,4,1449,83747,57.7964113182
127,0,2946,369415,125.39545146,1,2946,62597,21.2481330618,2,2946,53378,18.1188051595,3,2946,225334,76.488119484,4,2946,114357,38.8177189409
128,0,1559,115596,74.1475304682,1,1559,99686,63.9422706863,2,1559,33860,21.7190506735,3,1559,112666,72.2681205901,4,1559,103300,66.2604233483
129,0,2035,172916,84.971007371,1,2035,44577,21.9051597052,2,2035,40995,20.144963145,3,2035,159337,78.2982800983,4,2035,82827,40.7012285012
255,0,4,614,153.5,1,4,109,27.25,2,4,96,24.0,3,4,318,79.5,4,4,196,49.0
/Volumes/home/jpm67/shared/DATA/Christian/mouse embryos/130503_Embryos_slide3/130503_embryos_slide3_L5_Sum.session,/Volumes/home/jpm67/shared/DATA/Christian/mouse embryos/130503_Embryos_slide3/130503_embryos_slide3_L5_Sum.ome.tiff,29
3,0,2319,211597,91.2449331608,1,2319,90630,39.0815006468,2,2319,48605,20.9594652868,3,2319,177970,76.7442863303,4,2319,135157,58.2824493316
5,0,2367,301598,127.417828475,1,2367,69158,29.2175749894,2,2367,43921,18.5555555556,3,2367,149239,63.0498521335,4,2367,100233,42.3460076046
8,0,2989,253698,84.8772164604,1,2989,63192,21.1415189026,2,2989,55908,18.7045834727,3,2989,232586,77.8139846102,4,2989,162225,54.2740046838
9,0,1721,254988,148.162696107,1,1721,102555,59.5903544451,2,1721,42111,24.4689134224,3,1721,139201,80.8837884951,4,1721,137733,80.0307960488
17,0,1742,194097,111.421928817,1,1742,47186,27.0872560276,2,1742,45814,26.2996555683,3,1742,117120,67.233065442,4,1742,112885,64.8019517796
21,0,1862,241423,129.657894737,1,1862,78138,41.9645542427,2,1862,33834,18.1707841031,3,1862,134631,72.3045112782,4,1862,82956,44.552094522
28,0,1372,191503,139.579446064,1,1372,69088,50.3556851312,2,1372,35358,25.7711370262,3,1372,101119,73.7018950437,4,1372,112790,82.2084548105
29,0,2302,220522,95.7958297133,1,2302,75520,32.8062554301,2,2302,43794,19.0243266725,3,2302,160963,69.9231103388,4,2302,168442,73.1720243267
32,0,1598,177966,111.36795995,1,1598,69047,43.2083854819,2,1598,37314,23.3504380476,3,1598,123065,77.0118898623,4,1598,113496,71.0237797247
36,0,1926,208599,108.306853583,1,1926,61585,31.9755970924,2,1926,50881,26.4179646937,3,1926,137502,71.3925233645,4,1926,126751,65.8104880582
37,0,2219,212631,95.8228931951,1,2219,68636,30.9310500225,2,2219,42269,19.0486705723,3,2219,165970,74.7949526814,4,2219,137547,61.9860297431
40,0,4498,333569,74.1594041796,1,4498,62494,13.8937305469,2,4498,78873,17.535126723,3,4498,310669,69.0682525567,4,4498,267838,59.5460204535
44,0,2560,261334,102.08359375,1,2560,60711,23.715234375,2,2560,60238,23.53046875,3,2560,167990,65.62109375,4,2560,138162,53.96953125
46,0,1431,186616,130.409503843,1,1431,55912,39.071977638,2,1431,30943,21.6233403215,3,1431,98067,68.5303983229,4,1431,93459,65.3102725367
48,0,2593,288659,111.322406479,1,2593,34195,13.1874276899,2,2593,53824,20.7574238334,3,2593,183648,70.8245275742,4,2593,210419,81.1488623216
49,0,1534,179184,116.808344198,1,1534,60453,39.4087353325,2,1534,36743,23.9524119948,3,1534,108538,70.7548891786,4,1534,147146,95.9230769231
52,0,1902,229304,120.559411146,1,1902,66804,35.1230283912,2,1902,36637,19.2623554154,3,1902,134855,70.9016824395,4,1902,71756,37.7266035752
54,0,1942,227443,117.11791967,1,1942,66978,34.4891864058,2,1942,36553,18.8223480947,3,1942,139854,72.0154479918,4,1942,111370,57.3480947477
56,0,2241,206642,92.2097278001,1,2241,98053,43.7541276216,2,2241,44552,19.880410531,3,2241,136159,60.7581436859,4,2241,189531,84.5742971888
58,0,2244,219950,98.0169340463,1,2244,48888,21.7860962567,2,2244,42398,18.8939393939,3,2244,158134,70.4696969697,4,2244,149351,66.5557040998
59,0,2337,220709,94.4411638853,1,2337,39788,17.0252460419,2,2337,49121,21.0188275567,3,2337,154642,66.1711596063,4,2337,111063,47.5237483954
63,0,3044,270859,88.9812746386,1,3044,79471,26.1074244415,2,3044,50388,16.5532194481,3,3044,204091,67.046977661,4,3044,131147,43.0837713535
64,0,2270,223837,98.6066079295,1,2270,39277,17.3026431718,2,2270,43593,19.2039647577,3,2270,157116,69.2140969163,4,2270,118020,51.9911894273
65,0,3,122,40.6666666667,1,3,27,9.0,2,3,40,13.3333333333,3,3,275,91.6666666667,4,3,27,9.0
66,0,1590,235801,148.302515723,1,1590,82583,51.9389937107,2,1590,39832,25.051572327,3,1590,104531,65.7427672956,4,1590,124491,78.2962264151
67,0,2126,244038,114.787394167,1,2126,71551,33.6552210724,2,2126,47138,22.1721542803,3,2126,162798,76.5747883349,4,2126,174510,82.0837253057
68,0,1898,207995,109.586406744,1,1898,85328,44.956796628,2,1898,45656,24.0547945205,3,1898,121675,64.1069546891,4,1898,207026,109.075869336
69,0,1802,215212,119.429522752,1,1802,83286,46.2186459489,2,1802,40040,22.2197558269,3,1802,119178,66.1365149834,4,1802,167787,93.1115427303
255,0,9,1111,123.444444444,1,9,311,34.5555555556,2,9,192,21.3333333333,3,9,616,68.4444444444,4,9,814,90.4444444444
/Volumes/home/jpm67/shared/DATA/Christian/mouse embryos/130503_Embryos_slide3/130503_embryos_slide3_L7_Sum.session,/Volumes/home/jpm67/shared/DATA/Christian/mouse embryos/130503_Embryos_slide3/130503_embryos_slide3_L7_Sum.ome.tiff,34
3,0,1577,78349,49.6823081801,1,1577,41561,26.3544705136,2,1577,27176,17.2327203551,3,1577,120532,76.4311984781,4,1577,112112,71.0919467343
6,0,2121,79268,37.3729372937,1,2121,31081,14.6539368223,2,2121,31486,14.8448844884,3,2121,151701,71.5233380481,4,2121,128860,60.7543611504
10,0,3706,320589,86.5053966541,1,3706,77337,20.8680518079,2,3706,61683,16.6440906638,3,3706,301174,81.2665947113,4,3706,263797,71.1810577442
11,0,1314,56141,42.7252663623,1,1314,32759,24.9307458143,2,1314,20915,15.9170471842,3,1314,96959,73.7891933029,4,1314,89270,67.9375951294
12,0,1593,75977,47.6942875078,1,1593,94447,59.2887633396,2,1593,42908,26.9353421218,3,1593,118214,74.2084118016,4,1593,144831,90.9171374765
16,0,3192,331029,103.705827068,1,3192,102439,32.0924185464,2,3192,57337,17.9627192982,3,3192,233952,73.2932330827,4,3192,215999,67.6688596491
17,0,2072,102126,49.2886100386,1,2072,36448,17.5907335907,2,2072,34889,16.8383204633,3,2072,158203,76.3527992278,4,2072,111829,53.9715250965
18,0,3744,344099,91.906784188,1,3744,109160,29.155982906,2,3744,58049,15.5045405983,3,3744,243103,64.9313568376,4,3744,185751,49.6129807692
21,0,2214,106098,47.9214092141,1,2214,131785,59.5234869015,2,2214,57493,25.967931346,3,2214,164874,74.4688346883,4,2214,201662,91.0849141825
25,0,4189,294600,70.3270470279,1,4189,75932,18.1265218429,2,4189,67162,16.0329434233,3,4189,329043,78.5492957746,4,4189,257104,61.3759847219
31,0,1381,66055,47.8312816799,1,1381,59355,42.9797248371,2,1381,38217,27.6734250543,3,1381,116248,84.1766835626,4,1381,132492,95.9391745112
33,0,2030,104745,51.5985221675,1,2030,146513,72.1738916256,2,2030,56687,27.9246305419,3,2030,162410,80.0049261084,4,2030,217292,107.040394089
34,0,1997,85166,42.6469704557,1,1997,41516,20.7891837757,2,1997,36902,18.4787180771,3,1997,148536,74.379569354,4,1997,113369,56.7696544817
35,0,1280,60888,47.56875,1,1280,114141,89.17265625,2,1280,36651,28.63359375,3,1280,89890,70.2265625,4,1280,129730,101.3515625
36,0,2436,107312,44.052545156,1,2436,40238,16.5180623974,2,2436,40963,16.815681445,3,2436,174447,71.6120689655,4,2436,139507,57.2688834154
39,0,1590,71240,44.8050314465,1,1590,92386,58.1044025157,2,1590,30435,19.141509434,3,1590,112680,70.8679245283,4,1590,70206,44.1547169811
40,0,801,34593,43.1872659176,1,801,45854,57.2459425718,2,801,20424,25.4981273408,3,801,58965,73.6142322097,4,801,58533,73.074906367
43,0,864,39141,45.3020833333,1,864,32330,37.4189814815,2,864,19926,23.0625,3,864,66917,77.4502314815,4,864,67691,78.3460648148
44,0,1322,58820,44.4931921331,1,1322,85186,64.4372163389,2,1322,29291,22.156580938,3,1322,87271,66.0143721634,4,1322,103923,78.6104387292
45,0,3094,307539,99.3985132515,1,3094,91156,29.4621848739,2,3094,54529,17.6241111829,3,3094,228217,73.7611506141,4,3094,221596,71.6212023271
46,0,3088,200613,64.9653497409,1,3088,55978,18.1275906736,2,3088,48919,15.8416450777,3,3088,241633,78.2490284974,4,3088,173669,56.2399611399
50,0,2648,179885,67.9324018127,1,2648,28234,10.6623867069,2,2648,37140,14.0256797583,3,2648,182235,68.8198640483,4,2648,125595,47.4301359517
51,0,1805,76681,42.4825484765,1,1805,69273,38.3783933518,2,1805,36837,20.4083102493,3,1805,124357,68.8958448753,4,1805,116785,64.7008310249
53,0,1803,69316,38.4448141986,1,1803,30895,17.1353300055,2,1803,27224,15.0992789795,3,1803,112656,62.4825291181,4,1803,113737,63.0820854132
54,0,2702,103239,38.2083641747,1,2702,35155,13.0107327905,2,2702,34258,12.6787564767,3,2702,204710,75.7623982235,4,2702,109854,40.6565507032
56,0,1563,69171,44.2552783109,1,1563,77859,49.8138195777,2,1563,32431,20.7492002559,3,1563,107008,68.4632117722,4,1563,87621,56.0595009597
59,0,1162,42362,36.4561101549,1,1162,40820,35.1290877797,2,1162,16589,14.2762478485,3,1162,78333,67.4122203098,4,1162,65128,56.0481927711
60,0,2692,194148,72.1203566122,1,2692,25243,9.37704309064,2,2692,31059,11.5375185736,3,2692,209786,77.9294205052,4,2692,114951,42.7009658247
61,0,4362,313258,71.8152223751,1,4362,35100,8.04676753783,2,4362,54658,12.5304906006,3,4362,330561,75.7819807428,4,4362,176394,40.4387895461
62,0,2845,237045,83.3198594025,1,2845,43991,15.4625659051,2,2845,51195,17.9947275923,3,2845,207003,72.7602811951,4,2845,149621,52.5908611599
63,0,1572,79900,50.8269720102,1,1572,68191,43.3784987277,2,1572,50970,32.4236641221,3,1572,106040,67.4554707379,4,1572,97425,61.9751908397
64,0,2252,176948,78.5737122558,1,2252,61386,27.2584369449,2,2252,31335,13.9142984014,3,2252,168763,74.9391651865,4,2252,109792,48.7531083481
65,0,1713,185550,108.318739054,1,1713,21963,12.8213660245,2,1713,24472,14.2860478692,3,1713,135166,78.906012843,4,1713,12893,7.52656158786
255,0,4,256,64.0,1,4,235,58.75,2,4,63,15.75,3,4,299,74.75,4,4,359,89.75
/Volumes/home/jpm67/shared/DATA/Christian/mouse embryos/130503_Embryos_slide3/130503_embryos_slide3_L3_Sum.session,/Volumes/home/jpm67/shared/DATA/Christian/mouse embryos/130503_Embryos_slide3/130503_embryos_slide3_L3_Sum.ome.tiff,33
2,0,1744,67049,38.4455275229,1,1744,42700,24.4839449541,2,1744,29418,16.8681192661,3,1744,121609,69.7299311927,4,1744,153947,88.2723623853
4,0,1582,68383,43.2256637168,1,1582,55349,34.9867256637,2,1582,30647,19.3723135272,3,1582,117061,73.9955752212,4,1582,140314,88.6940581542
5,0,1519,61039,40.1836734694,1,1519,61974,40.7992100066,2,1519,27723,18.2508229098,3,1519,107676,70.8861092824,4,1519,160302,105.531270573
6,0,1310,45780,34.9465648855,1,1310,24498,18.7007633588,2,1310,24387,18.6160305344,3,1310,105949,80.8770992366,4,1310,130050,99.2748091603
8,0,1628,62507,38.394963145,1,1628,32590,20.0184275184,2,1628,30628,18.8132678133,3,1628,116563,71.5988943489,4,1628,158337,97.2585995086
9,0,1474,54759,37.1499321574,1,1474,22113,15.0020352782,2,1474,30210,20.4952510176,3,1474,116080,78.7516960651,4,1474,142936,96.9715061058
11,0,1176,47312,40.231292517,1,1176,25724,21.8741496599,2,1176,17240,14.6598639456,3,1176,77871,66.2168367347,4,1176,87124,74.0850340136
12,0,1885,118359,62.7899204244,1,1885,13808,7.32519893899,2,1885,29147,15.4625994695,3,1885,140475,74.5225464191,4,1885,21628,11.4737400531
14,0,1277,51487,40.31871574,1,1277,21919,17.1644479248,2,1277,21753,17.0344557557,3,1277,92876,72.7298355521,4,1277,134834,105.586530932
15,0,1502,66677,44.3921438083,1,1502,21426,14.2649800266,2,1502,28278,18.82689747,3,1502,116415,77.5066577896,4,1502,147583,98.2576564581
22,0,1450,85739,59.1303448276,1,1450,12434,8.57517241379,2,1450,21227,14.6393103448,3,1450,99951,68.9317241379,4,1450,36547,25.2048275862
23,0,2098,78980,37.6453765491,1,2098,33610,16.0200190658,2,2098,38736,18.4632983794,3,2098,161518,76.9866539561,4,2098,186164,88.7340324118
24,0,1000,37877,37.877,1,1000,13314,13.314,2,1000,15859,15.859,3,1000,78901,78.901,4,1000,69935,69.935
34,0,1006,35532,35.3200795229,1,1006,46584,46.3061630219,2,1006,16138,16.041749503,3,1006,70828,70.4055666004,4,1006,67657,67.2534791252
39,0,1129,59004,52.2621789194,1,1129,29603,26.2205491585,2,1129,17371,15.3861824624,3,1129,77676,68.8007085917,4,1129,14814,13.1213463242
51,0,1153,39982,34.6764960971,1,1153,22647,19.6418039896,2,1153,20844,18.078057242,3,1153,81551,70.7294015611,4,1153,117923,102.274934952
58,0,516,28250,54.7480620155,1,516,12995,25.1841085271,2,516,8788,17.0310077519,3,516,34141,66.1647286822,4,516,12530,24.2829457364
59,0,805,31306,38.8894409938,1,805,24966,31.0136645963,2,805,15069,18.7192546584,3,805,54816,68.0944099379,4,805,81882,101.716770186
63,0,891,36024,40.430976431,1,891,55236,61.9932659933,2,891,16004,17.9618406285,3,891,63197,70.9281705948,4,891,51540,57.8451178451
69,0,784,26354,33.6147959184,1,784,12623,16.1007653061,2,784,11549,14.7308673469,3,784,57356,73.1581632653,4,784,50790,64.7831632653
71,0,1003,66073,65.8753738784,1,1003,9542,9.51345962114,2,1003,12735,12.6969092722,3,1003,58636,58.4606181456,4,1003,12287,12.2502492522
76,0,1056,30787,29.1543560606,1,1056,16002,15.1534090909,2,1056,14582,13.8087121212,3,1056,67337,63.7660984848,4,1056,83614,79.1799242424
87,0,983,31367,31.9094608342,1,983,24324,24.7446592065,2,983,16493,16.7782299084,3,983,80557,81.9501525941,4,983,102807,104.584944049
96,0,1339,49226,36.7632561613,1,1339,38661,28.8730395818,2,1339,21270,15.8849887976,3,1339,86443,64.5578790142,4,1339,119404,89.1740104556
104,0,670,20679,30.8641791045,1,670,8490,12.671641791,2,670,8227,12.2791044776,3,670,47427,70.7865671642,4,670,45850,68.4328358209
106,0,779,23897,30.676508344,1,779,13534,17.3735558408,2,779,9396,12.0616174583,3,779,63464,81.4685494223,4,779,44744,57.4377406932
114,0,1359,45143,33.2178072112,1,1359,21519,15.8344370861,2,1359,20621,15.1736571008,3,1359,96807,71.233995585,4,1359,108372,79.7439293598
117,0,1136,38905,34.2473591549,1,1136,11977,10.5431338028,2,1136,16005,14.0889084507,3,1136,73883,65.0378521127,4,1136,58007,51.0625
123,0,1106,42461,38.3915009042,1,1106,17177,15.5307414105,2,1106,16542,14.9566003617,3,1106,63569,57.4764918626,4,1106,82374,74.47920434
132,0,5,167,33.4,1,5,34,6.8,2,5,78,15.6,3,5,371,74.2,4,5,35,7.0
133,0,276,10717,38.8297101449,1,276,21626,78.3550724638,2,276,6708,24.3043478261,3,276,19375,70.1992753623,4,276,38360,138.985507246
134,0,323,12128,37.5479876161,1,323,25529,79.0371517028,2,323,6756,20.9164086687,3,323,22233,68.8328173375,4,323,46062,142.606811146
255,0,3,87,29.0,1,3,44,14.6666666667,2,3,27,9.0,3,3,173,57.6666666667,4,3,147,49.0
/Volumes/home/jpm67/shared/DATA/Christian/mouse embryos/130503_Embryos_slide3/130503_embryos_slide3_L6_Sum.session,/Volumes/home/jpm67/shared/DATA/Christian/mouse embryos/130503_Embryos_slide3/130503_embryos_slide3_L6_Sum.ome.tiff,31
16,0,3765,472475,125.491367862,1,3765,85583,22.7312084993,2,3765,57631,15.3070385126,3,3765,293499,77.9545816733,4,3765,156902,41.6738379814
18,0,2678,181157,67.646377894,1,2678,101688,37.9716206124,2,2678,44648,16.6721433906,3,2678,183840,68.6482449589,4,2678,148132,55.3144137416
31,0,2737,210641,76.960540738,1,2737,303307,110.817318232,2,2737,54456,19.8962367556,3,2737,181200,66.2038728535,4,2737,116954,42.7307270734
35,0,3214,471898,146.82576229,1,3214,52491,16.3319850653,2,3214,36075,11.2243310516,3,3214,217494,67.6708151836,4,3214,106673,33.1901057872
37,0,2498,235431,94.2477982386,1,2498,259298,103.802241793,2,2498,43276,17.3242594075,3,2498,184485,73.853082466,4,2498,59150,23.6789431545
39,0,3098,411639,132.872498386,1,3098,21560,6.9593285991,2,3098,44388,14.3279535184,3,3098,238881,77.1081342802,4,3098,87712,28.3124596514
42,0,2275,197580,86.8483516484,1,2275,190997,83.9547252747,2,2275,41657,18.3107692308,3,2275,153154,67.3204395604,4,2275,70248,30.8782417582
44,0,1633,213409,130.685241886,1,1633,14943,9.15064298836,2,1633,21501,13.166564605,3,1633,111329,68.1745254133,4,1633,64574,39.5431720759
45,0,3747,481416,128.480384307,1,3747,140514,37.5004003203,2,3747,45951,12.2634107286,3,3747,251919,67.2321857486,4,3747,125844,33.5852682146
49,0,2020,133843,66.2589108911,1,2020,60004,29.704950495,2,2020,27513,13.6202970297,3,2020,135914,67.2841584158,4,2020,67067,33.2014851485
51,0,2209,180153,81.5540968764,1,2209,230234,104.225441376,2,2209,39404,17.8379357175,3,2209,157187,71.1575373472,4,2209,86092,38.9732910819
55,0,2102,216873,103.174595623,1,2102,233343,111.009990485,2,2102,42037,19.9985727878,3,2102,134082,63.7878211227,4,2102,62431,29.7007611798
57,0,1848,109104,59.038961039,1,1848,93355,50.5167748918,2,1848,29144,15.7705627706,3,1848,130981,70.8771645022,4,1848,53597,29.0027056277
70,0,2285,213883,93.6030634573,1,2285,154526,67.6262582057,2,2285,37579,16.44595186,3,2285,141929,62.1133479212,4,2285,68937,30.1693654267
72,0,2403,173734,72.2987931752,1,2403,74791,31.1240116521,2,2403,31445,13.0857261756,3,2403,162241,67.5160216396,4,2403,64979,27.0407823554
73,0,1170,69880,59.7264957265,1,1170,65340,55.8461538462,2,1170,14852,12.694017094,3,1170,81109,69.3239316239,4,1170,27717,23.6897435897
74,0,3763,425000,112.941801754,1,3763,44778,11.8995482328,2,3763,44446,11.8113207547,3,3763,282285,75.015944725,4,3763,92062,24.4650544778
79,0,3359,415280,123.632033343,1,3359,93129,27.725215838,2,3359,35105,10.4510270914,3,3359,236612,70.4412027389,4,3359,100810,30.011908306
80,0,1777,99434,55.9561057963,1,1777,104862,59.0106921778,2,1777,26695,15.0225098481,3,1777,111176,62.5638716939,4,1777,34540,19.4372537985
81,0,1779,103371,58.1062394604,1,1779,132595,74.533445756,2,1779,31745,17.8442945475,3,1779,107651,60.5120854413,4,1779,48733,27.3934794829
84,0,3413,297133,87.0591854673,1,3413,60997,17.8719601524,2,3413,39024,11.4339290946,3,3413,233325,68.3636097275,4,3413,93404,27.3671256959
85,0,6595,862166,130.73025019,1,6595,182976,27.7446550417,2,6595,96516,14.6347232752,3,6595,466624,70.7542077331,4,6595,257843,39.0967399545
87,0,2582,235118,91.0604182804,1,2582,48066,18.6158017041,2,2582,37729,14.6123160341,3,2582,194243,75.2296669249,4,2582,136152,52.7312161115
88,0,1839,168228,91.4779771615,1,1839,182576,99.2800435019,2,1839,37633,20.463839043,3,1839,120402,65.471451876,4,1839,95872,52.1326808048
90,0,3793,495044,130.515159504,1,3793,48467,12.7780121276,2,3793,58451,15.4102293699,3,3793,257981,68.0150276826,4,3793,133578,35.2169786449
91,0,1050,71677,68.2638095238,1,1050,49435,47.080952381,2,1050,17813,16.9647619048,3,1050,70709,67.3419047619,4,1050,55436,52.7961904762
92,0,2632,217050,82.4658054711,1,2632,183351,69.6622340426,2,2632,48476,18.4179331307,3,2632,165633,62.9304711246,4,2632,101241,38.4654255319
93,0,1724,218945,126.998259861,1,1724,15454,8.96403712297,2,1724,23785,13.7964037123,3,1724,132312,76.747099768,4,1724,63707,36.9530162413
94,0,3553,435650,122.61469181,1,3553,54661,15.3844638334,2,3553,49535,13.9417393752,3,3553,280521,78.9532789192,4,3553,118676,33.4016324233
95,0,1891,114908,60.7657324167,1,1891,145000,76.679005817,2,1891,29080,15.3781068218,3,1891,121470,64.2358540455,4,1891,43019,22.7493389741
96,0,2210,115951,52.4665158371,1,2210,33687,15.2429864253,2,2210,21874,9.89773755656,3,2210,148498,67.1936651584,4,2210,64918,29.3746606335
/Volumes/home/jpm67/shared/DATA/Christian/mouse embryos/130503_Embryos_slide3/130503_embryos_slide3_L8_Sum.session,/Volumes/home/jpm67/shared/DATA/Christian/mouse embryos/130503_Embryos_slide3/130503_embryos_slide3_L8_Sum.ome.tiff,34
12,0,2559,147495,57.6377491208,1,2559,52149,20.3786635404,2,2559,33882,13.2403282532,3,2559,181906,71.0847987495,4,2559,113984,44.5423993748
15,0,3376,282442,83.6617298578,1,3376,77621,22.9920023697,2,3376,50758,15.0349526066,3,3376,264996,78.4940758294,4,3376,232922,68.9934834123
16,0,2756,282421,102.474963716,1,2756,73955,26.834179971,2,2756,45473,16.4996371553,3,2756,208479,75.6455007257,4,2756,172076,62.4368650218
26,0,1463,74485,50.9125085441,1,1463,49769,34.018455229,2,1463,28509,19.4866712235,3,1463,114729,78.4203691046,4,1463,161080,110.10252905
27,0,2824,228789,81.0159348442,1,2824,46879,16.6002124646,2,2824,40206,14.2372521246,3,2824,191013,67.6391643059,4,2824,151225,53.5499291785
28,0,1840,138824,75.447826087,1,1840,6108,3.31956521739,2,1840,17108,9.29782608696,3,1840,120134,65.2902173913,4,1840,8019,4.35815217391
29,0,1816,88572,48.7731277533,1,1816,86395,47.574339207,2,1816,40821,22.4785242291,3,1816,132788,73.1211453744,4,1816,140719,77.4884361233
34,0,2713,142535,52.5377810542,1,2713,55601,20.4942867674,2,2713,41838,15.4213048286,3,2713,201317,74.2045705861,4,2713,202463,74.6269812016
36,0,2720,238822,87.8022058824,1,2720,56924,20.9279411765,2,2720,42731,15.7099264706,3,2720,199536,73.3588235294,4,2720,186784,68.6705882353
37,0,1488,109277,73.438844086,1,1488,92734,62.3212365591,2,1488,34672,23.3010752688,3,1488,111888,75.1935483871,4,1488,125516,84.3521505376
39,0,1086,51677,47.5847145488,1,1086,29836,27.4732965009,2,1086,22927,21.1114180479,3,1086,85264,78.5119705341,4,1086,88837,81.8020257827
44,0,1820,114512,62.9186813187,1,1820,81391,44.7203296703,2,1820,41293,22.6884615385,3,1820,128450,70.5769230769,4,1820,152688,83.8945054945
47,0,2907,231453,79.6191950464,1,2907,68124,23.4344685243,2,2907,47792,16.4403164775,3,2907,203671,70.0622635019,4,2907,151981,52.2810457516
51,0,1938,116939,60.3400412797,1,1938,42315,21.8343653251,2,1938,46691,24.0923632611,3,1938,150869,77.8477812178,4,1938,143611,74.1026831785
53,0,1756,85344,48.6013667426,1,1756,60009,34.173690205,2,1756,37878,21.5706150342,3,1756,120580,68.6674259681,4,1756,173645,98.8866742597
55,0,2939,225062,76.5777475332,1,2939,45598,15.5148009527,2,2939,47767,16.2528070772,3,2939,232923,79.2524668255,4,2939,230259,78.3460360667
56,0,3697,306054,82.7844197998,1,3697,93385,25.2596700027,2,3697,70639,19.1071138761,3,3697,258084,69.8090343522,4,3697,313341,84.7554774141
57,0,1390,75400,54.2446043165,1,1390,66235,47.6510791367,2,1390,29487,21.2136690647,3,1390,107074,77.0316546763,4,1390,99491,71.5762589928
59,0,1894,108356,57.2101372756,1,1894,65616,34.6441393875,2,1894,48672,25.6979936642,3,1894,121818,64.3178458289,4,1894,195576,103.260823654
62,0,1509,95705,63.422796554,1,1509,43932,29.1133200795,2,1509,27708,18.3618290258,3,1509,115971,76.8528827038,4,1509,83832,55.5546719682
63,0,1369,81509,59.5390796202,1,1369,46065,33.6486486486,2,1369,27821,20.3221329438,3,1369,103863,75.8677867056,4,1369,82141,60.0007304602
67,0,2749,240630,87.5336485995,1,2749,37124,13.504547108,2,2749,37018,13.4659876319,3,2749,208433,75.8213895962,4,2749,131544,47.8515823936
70,0,1509,137910,91.3916500994,1,1509,8670,5.74552683897,2,1509,21677,14.3651424785,3,1509,96323,63.8323392975,4,1509,9172,6.07819748178
71,0,2951,215379,72.9850898001,1,2951,48831,16.5472721111,2,2951,42287,14.3297187394,3,2951,220051,74.5682819383,4,2951,158148,53.5913249746
72,0,3059,240198,78.5217391304,1,3059,47183,15.4243216737,2,3059,46775,15.2909447532,3,3059,234200,76.5609676365,4,3059,193099,63.1248774109
73,0,1751,102458,58.5139920046,1,1751,55456,31.6710451171,2,1751,34069,19.4568817818,3,1751,135802,77.5568246716,4,1751,102812,58.716162193
74,0,1458,62614,42.9451303155,1,1458,47047,32.268175583,2,1458,35691,24.4794238683,3,1458,113472,77.8271604938,4,1458,111628,76.5624142661
75,0,1601,84114,52.5384134916,1,1601,59954,37.4478450968,2,1601,32370,20.2186133666,3,1601,111403,69.5833853841,4,1601,83078,51.8913179263
80,0,2896,216299,74.6888812155,1,2896,37481,12.9423342541,2,2896,42481,14.6688535912,3,2896,191159,66.007941989,4,2896,173254,59.8252762431
81,0,3161,234184,74.0854160076,1,3161,32920,10.4144258146,2,3161,41102,13.0028472003,3,3161,228496,72.2859854476,4,3161,128389,40.6165770326
83,0,3013,168836,56.0358446731,1,3013,54707,18.1569863923,2,3013,45288,15.0308662463,3,3013,231184,76.728841686,4,3013,165815,55.0331895121
84,0,1656,92656,55.9516908213,1,1656,85078,51.3756038647,2,1656,33246,20.0760869565,3,1656,125715,75.9148550725,4,1656,141889,85.681763285
85,0,2860,282566,98.7993006993,1,2860,114254,39.948951049,2,2860,55255,19.3199300699,3,2860,194862,68.1335664336,4,2860,265657,92.8870629371
255,0,10,706,70.6,1,10,386,38.6,2,10,155,15.5,3,10,734,73.4,4,10,868,86.8
/Volumes/home/jpm67/shared/DATA/Christian/mouse embryos/130503_Embryos_slide3/130503_embryos_slide3_L2_Sum_Nanog.session,/Volumes/home/jpm67/shared/DATA/Christian/mouse embryos/130503_Embryos_slide3/130503_embryos_slide3_L2_Sum.ome.tiff,25
6,0,768,30249,39.38671875,1,768,21100,27.4739583333,2,768,16709,21.7565104167,3,768,56653,73.7669270833,4,768,85626,111.4921875
12,0,1853,91903,49.5968699406,1,1853,69843,37.6918510523,2,1853,35671,19.2504047491,3,1853,135107,72.912574204,4,1853,182946,98.7296276309
16,0,2275,80469,35.370989011,1,2275,94173,41.3947252747,2,2275,37552,16.5063736264,3,2275,148401,65.2312087912,4,2275,148130,65.1120879121
40,0,2533,98626,38.9364390051,1,2533,185687,73.3071456771,2,2533,51290,20.2487169364,3,2533,175289,69.2021318595,4,2533,218311,86.1867350967
44,0,2475,252108,101.861818182,1,2475,144516,58.3903030303,2,2475,47237,19.0856565657,3,2475,186499,75.3531313131,4,2475,218451,88.263030303
45,0,2000,70179,35.0895,1,2000,193709,96.8545,2,2000,50774,25.387,3,2000,134571,67.2855,4,2000,168871,84.4355
53,0,1163,154843,133.141014617,1,1163,35890,30.8598452279,2,1163,20191,17.3611349957,3,1163,82439,70.8847807395,4,1163,95612,82.2115219261
55,0,2279,85011,37.3018867925,1,2279,180181,79.061430452,2,2279,50511,22.1636682756,3,2279,164198,72.0482667837,4,2279,171490,75.2479157525
58,0,1154,31866,27.6135181976,1,1154,23554,20.410745234,2,1154,17241,14.9402079723,3,1154,80872,70.0797227036,4,1154,92376,80.0485268631
60,0,2339,89204,38.1376656691,1,2339,170337,72.8247114151,2,2339,50748,21.696451475,3,2339,168319,71.9619495511,4,2339,193078,82.5472424113
61,0,2276,78266,34.3875219684,1,2276,191010,83.9235500879,2,2276,56359,24.7623022847,3,2276,146325,64.2904217926,4,2276,214138,94.0852372583
62,0,1459,50680,34.7361206306,1,1459,61236,41.9712131597,2,1459,32695,22.4091843729,3,1459,108963,74.6833447567,4,1459,163139,111.815627142
63,0,2484,85104,34.2608695652,1,2484,179334,72.1956521739,2,2484,40050,16.1231884058,3,2484,171380,68.9935587762,4,2484,160679,64.6855877617
68,0,1871,64835,34.6525921967,1,1871,127161,67.9641902726,2,1871,43606,23.3062533405,3,1871,130259,69.6199893105,4,1871,161869,86.5146980224
71,0,1875,198299,105.759466667,1,1875,87457,46.6437333333,2,1875,28109,14.9914666667,3,1875,129526,69.0805333333,4,1875,104254,55.6021333333
72,0,2348,72942,31.0655877342,1,2348,139482,59.4045996593,2,2348,50577,21.5404599659,3,2348,153627,65.4288756388,4,2348,187382,79.8049403748
73,0,2599,192376,74.0192381685,1,2599,132360,50.927279723,2,2599,43834,16.8657175837,3,2599,162788,62.6348595614,4,2599,150670,57.9722970373
74,0,554,16479,29.7454873646,1,554,16527,29.8321299639,2,554,10200,18.4115523466,3,554,40056,72.3032490975,4,554,56942,102.783393502
77,0,1,25,25.0,1,1,31,31.0,2,1,33,33.0,3,1,59,59.0,4,1,107,107.0
78,0,2592,89639,34.5829475309,1,2592,166522,64.2445987654,2,2592,52561,20.2781635802,3,2592,169338,65.3310185185,4,2592,190151,73.3607253086
81,0,2,66,33.0,1,2,72,36.0,2,2,50,25.0,3,2,118,59.0,4,2,92,46.0
82,0,2446,88031,35.9897792314,1,2446,230104,94.0735895339,2,2446,54419,22.2481602617,3,2446,172599,70.5637775961,4,2446,240311,98.2465249387
83,0,1887,84580,44.8224695284,1,1887,165407,87.6560678325,2,1887,44208,23.4276629571,3,1887,130866,69.3513513514,4,1887,239624,126.986751457
85,0,2112,80038,37.896780303,1,2112,180911,85.6586174242,2,2112,44729,21.1785037879,3,2112,153697,72.7732007576,4,2112,160833,76.1519886364
86,0,1820,67398,37.0318681319,1,1820,126327,69.4104395604,2,1820,32842,18.0450549451,3,1820,125472,68.9406593407,4,1820,132904,73.0241758242
