[Move]
23 -> 25
24 -> 26
19 -> 20
1 -> 1
7 -> 10
10 -> 12
9 -> 9
6 -> 8
8 -> 11
12 -> 15
5 -> 6
4 -> 7
13 -> 16
11 -> 13
16 -> 18
14 -> 17

[Division]
21 -> 21 22

[Split]
22 -> 24 23

[Merge]
2 3 -> 2

