[Move]
25 -> 30
23 -> 28
21 -> 24
26 -> 31
4 -> 2
5 -> 4
14 -> 15
11 -> 12
8 -> 6
13 -> 14
2 -> 5
9 -> 8
15 -> 18
7 -> 3
10 -> 10
17 -> 20
16 -> 19
18 -> 21
19 -> 22

[Division]
12 -> 13 11

[Appearance]
-1 -> 29

[Split]
22 -> 27 26

