x, y, fluorescence
762, 886, 6.921875
812, 866, 6.671875
852, 836, 6.90625
888, 808, 6.83203125
920, 778, 6.71875
944, 740, 6.29296875
962, 698, 7.19921875
944, 666, 5.921875
934, 696, 6.02734375
914, 740, 6.12109375
878, 762, 6.2578125
848, 776, 5.84375
834, 812, 5.796875
810, 840, 3.828125
788, 814, 5.7890625
762, 814, 5.6640625
752, 856, 6.46484375
730, 830, 4.8046875
694, 852, 6.0625
720, 878, 6.6875
676, 882, 8.6171875
618, 896, 7.0078125
632, 876, 6.390625
594, 864, 15.32421875
546, 872, 6.53125
560, 830, 5.6171875
596, 828, 5.625
652, 846, 6.1171875
626, 808, 5.78125
664, 814, 10.7578125
696, 812, 5.62890625
722, 798, 6.00390625
758, 780, 5.44140625
750, 754, 5.3984375
800, 762, 5.27734375
830, 748, 5.625
856, 712, 5.73046875
902, 698, 5.7109375
916, 674, 5.6953125
926, 638, 5.89453125
964, 642, 6.71875
962, 610, 6.3203125
954, 572, 7.02734375
928, 592, 5.8515625
918, 564, 5.87109375
960, 548, 6.51953125
896, 584, 6.703125
888, 626, 5.46875
876, 662, 5.65234375
840, 672, 5.99609375
844, 634, 5.875
830, 724, 5.65234375
814, 706, 5.890625
778, 708, 5.58984375
728, 714, 5.80859375
702, 734, 5.19140625
706, 772, 5.46484375
674, 772, 5.6171875
646, 768, 15.06640625
602, 770, 5.7109375
568, 768, 5.55859375
574, 798, 5.2578125
536, 800, 5.8203125
512, 828, 6.46484375
480, 832, 7.03125
480, 798, 6.8125
500, 796, 5.74609375
502, 778, 6.57421875
534, 776, 5.68359375
536, 754, 5.55078125
452, 808, 6.92578125
422, 794, 5.7109375
450, 780, 6.4140625
866, 604, 5.1015625
880, 566, 5.4375
908, 532, 5.6640625
946, 510, 6.53125
974, 500, 13.4609375
938, 482, 6.44140625
950, 448, 6.3984375
974, 430, 17.34375
894, 498, 5.7734375
870, 526, 6.2421875
842, 582, 5.05078125
812, 654, 5.8046875
796, 672, 6.2265625
768, 654, 5.57421875
736, 662, 5.484375
720, 688, 5.390625
698, 678, 5.0859375
658, 700, 5.46484375
660, 732, 5.23046875
620, 740, 5.12890625
592, 736, 5.25
598, 714, 5.453125
528, 710, 5.7265625
510, 734, 5.45703125
490, 740, 5.8125
460, 732, 5.4765625
438, 746, 5.83984375
412, 762, 6.71875
380, 764, 6.75
360, 736, 6.42578125
394, 732, 5.7109375
406, 708, 6.10546875
438, 700, 5.625
470, 696, 5.4765625
498, 682, 7.6953125
530, 678, 5.125
576, 674, 4.8984375
610, 666, 5.2578125
636, 700, 5.62109375
674, 656, 5.28125
700, 642, 6.4296875
644, 638, 4.9765625
688, 614, 4.9453125
886, 462, 5.91796875
922, 432, 6.2578125
890, 422, 5.890625
862, 414, 10.93359375
856, 440, 7.1171875
826, 444, 5.4140625
860, 472, 5.7109375
856, 494, 5.8203125
822, 544, 5.9296875
826, 618, 10.5859375
804, 612, 5.31640625
790, 602, 5.57421875
766, 620, 6.96484375
768, 588, 5.515625
744, 618, 5.82421875
738, 594, 5.04296875
796, 562, 5.328125
796, 534, 6.3046875
760, 546, 6.65234375
738, 552, 5.6796875
710, 568, 6.90234375
684, 576, 5.44140625
648, 594, 4.703125
606, 602, 5.39453125
586, 630, 5.390625
554, 656, 5.84375
538, 624, 5.3046875
514, 646, 5.703125
472, 646, 7.21484375
438, 642, 5.44140625
412, 668, 5.37890625
386, 644, 5.53515625
382, 690, 6.4921875
358, 664, 5.8671875
338, 688, 6.83984375
360, 708, 6.62890625
328, 724, 7.3125
304, 700, 7.4140625
290, 664, 6.0625
316, 662, 9.41015625
338, 624, 6.1328125
312, 600, 5.22265625
282, 624, 6.67578125
254, 638, 6.7421875
254, 602, 6.59375
272, 582, 6.05078125
242, 566, 6.1953125
262, 554, 6.390625
298, 562, 6.17578125
908, 382, 6.421875
890, 344, 28.3671875
836, 406, 6.35546875
808, 406, 7.234375
826, 514, 5.83984375
794, 494, 6.8359375
814, 478, 6.5390625
772, 516, 5.5703125
734, 514, 5.51171875
712, 526, 5.75390625
678, 536, 5.125
674, 554, 4.96484375
650, 544, 4.83203125
582, 570, 5.37890625
576, 594, 10.76953125
526, 606, 5.82421875
494, 606, 5.4921875
454, 598, 5.1171875
476, 570, 4.84765625
512, 568, 6.90234375
508, 548, 5.44140625
532, 532, 4.9140625
576, 532, 4.86328125
588, 512, 6.0390625
634, 512, 5.015625
654, 482, 5.046875
708, 482, 6.19921875
752, 476, 8.3984375
790, 468, 7.16796875
776, 436, 5.390625
738, 440, 5.51171875
766, 398, 5.62890625
786, 386, 7.796875
718, 408, 5.48828125
696, 450, 7.5234375
666, 424, 4.99609375
636, 454, 21.0703125
552, 508, 5.859375
558, 480, 5.15234375
592, 462, 5.7890625
514, 510, 5.140625
516, 478, 5.21484375
486, 488, 4.87109375
474, 516, 4.76953125
458, 546, 5.65625
430, 556, 5.6015625
416, 590, 5.18359375
394, 608, 5.328125
370, 574, 6.8515625
384, 538, 5.7109375
390, 512, 5.57421875
424, 510, 5.00390625
446, 476, 5.2265625
404, 472, 7.484375
424, 454, 20.4921875
344, 536, 10.05859375
304, 530, 5.94140625
304, 508, 19.62109375
272, 502, 6.32421875
260, 512, 6.3984375
242, 492, 6.8125
280, 482, 8.5859375
272, 440, 7.01171875
304, 454, 6.33984375
328, 478, 7.02734375
340, 454, 17.546875
370, 480, 5.35546875
380, 438, 5.1875
406, 420, 22.27734375
360, 402, 5.8359375
322, 418, 5.53125
320, 384, 7.3046875
338, 356, 6.3828125
482, 470, 12.69921875
482, 434, 4.53515625
518, 436, 4.3515625
558, 444, 14.4765625
568, 420, 5.390625
612, 422, 5.11328125
694, 380, 5.53515625
712, 344, 6.37109375
770, 360, 7.3671875
796, 342, 5.9453125
824, 374, 6.12109375
842, 344, 6.625
872, 328, 27.53125
842, 306, 6.6640625
796, 290, 7.94140625
776, 316, 15.0546875
750, 318, 7.45703125
762, 278, 6.53515625
722, 290, 5.94921875
702, 314, 6.2578125
678, 290, 6.08984375
702, 264, 6.1875
732, 246, 6.82421875
678, 250, 6.6328125
662, 374, 4.7734375
630, 352, 5.38671875
666, 336, 5.53515625
600, 376, 4.99609375
556, 372, 5.4453125
530, 400, 5.125
506, 390, 5.2265625
444, 396, 5.05078125
424, 380, 5.59375
402, 368, 6.96484375
396, 334, 6.0859375
358, 324, 6.21875
366, 290, 6.56640625
412, 276, 6.66796875
426, 304, 5.6953125
440, 336, 5.37890625
470, 336, 6.4140625
474, 366, 5.5703125
508, 352, 5.73828125
554, 334, 19.83203125
586, 338, 5.4765625
630, 326, 7.859375
560, 312, 26.82421875
502, 308, 19.4765625
520, 288, 5.72265625
482, 282, 6.39453125
504, 260, 6.23046875
452, 260, 6.578125
468, 238, 6.75390625
506, 228, 6.17578125
542, 248, 6.125
596, 282, 6.31640625
640, 286, 6.28515625
646, 248, 6.265625
612, 250, 7.0078125
580, 250, 6.0
608, 228, 29.51171875
576, 220, 6.3984375
